Lab3/code/tb_wave.vcd
$date
	Sat May 18 12:32:02 2019
$end
$version
	Icarus Verilog
$end
$timescale
	1ps
$end
$scope module TestBench $end
$scope module CPU $end
$var wire 1 ! clk_i $end
$var wire 1 " rst_i $end
$var wire 32 # reg_rt [31:0] $end
$var wire 32 $ reg_rs [31:0] $end
$var wire 5 % reg_dst [4:0] $end
$var wire 32 & pc_se_sl2_PLUS_pc_4 [31:0] $end
$var wire 32 ' pc_se_sl2 [31:0] $end
$var wire 32 ( pc_se [31:0] $end
$var wire 32 ) pc_output [31:0] $end
$var wire 32 * pc_instr [31:0] $end
$var wire 32 + pc_input [31:0] $end
$var wire 32 , pc_address_without_jump [31:0] $end
$var wire 32 - pc_4 [31:0] $end
$var wire 32 . mem_res_lw [31:0] $end
$var wire 32 / lower_jump [31:0] $end
$var wire 32 0 jump_whole [31:0] $end
$var wire 32 1 j_jal [31:0] $end
$var wire 32 2 final_RDdata [31:0] $end
$var wire 5 3 final_RDaddr [4:0] $end
$var wire 1 4 branch_res $end
$var wire 1 5 alu_zero $end
$var wire 32 6 alu_src2 [31:0] $end
$var wire 32 7 alu_src1 [31:0] $end
$var wire 32 8 alu_result [31:0] $end
$var wire 4 9 alu_ctrl [3:0] $end
$var wire 1 : RegWrite $end
$var wire 1 ; RegDst $end
$var wire 32 < RDdata_without_lw [31:0] $end
$var wire 1 = MemtoReg $end
$var wire 1 > MemWrite $end
$var wire 1 ? MemRead $end
$var wire 1 @ Jump $end
$var wire 1 A Branch $end
$var wire 1 B ALUSrc $end
$var wire 3 C ALUOp [2:0] $end
$scope module AC $end
$var wire 6 D funct_i [5:0] $end
$var wire 3 E ALUOp_i [2:0] $end
$var reg 4 F ALUCtrl_o [3:0] $end
$upscope $end
$scope module ALU $end
$var wire 4 G ctrl_i [3:0] $end
$var wire 1 5 zero_o $end
$var wire 32 H src2_i [31:0] $end
$var wire 32 I src1_i [31:0] $end
$var reg 32 J result_o [31:0] $end
$upscope $end
$scope module Adder1 $end
$var wire 32 K src2_i [31:0] $end
$var wire 32 L sum_o [31:0] $end
$var wire 32 M src1_i [31:0] $end
$upscope $end
$scope module Adder2 $end
$var wire 32 N src1_i [31:0] $end
$var wire 32 O sum_o [31:0] $end
$var wire 32 P src2_i [31:0] $end
$upscope $end
$scope module Data_Memory $end
$var wire 32 Q addr_i [31:0] $end
$var wire 1 ! clk_i $end
$var wire 32 R data_i [31:0] $end
$var wire 1 > MemWrite_i $end
$var wire 1 ? MemRead_i $end
$var reg 32 S data_o [31:0] $end
$var integer 32 T i [31:0] $end
$upscope $end
$scope module Decoder $end
$var wire 6 U func_code_i [5:0] $end
$var wire 6 V instr_op_i [5:0] $end
$var reg 1 B ALUSrc_o $end
$var reg 3 W ALU_op_o [2:0] $end
$var reg 1 A Branch_o $end
$var reg 1 @ Jump_o $end
$var reg 1 ? MemRead_o $end
$var reg 1 > MemWrite_o $end
$var reg 1 = MemtoReg_o $end
$var reg 1 ; RegDst_o $end
$var reg 1 : RegWrite_o $end
$upscope $end
$scope module IM $end
$var wire 32 X instr_o [31:0] $end
$var wire 32 Y addr_i [31:0] $end
$var integer 32 Z i [31:0] $end
$upscope $end
$scope module Mux_ALUSrc $end
$var wire 1 B select_i $end
$var wire 32 [ data_o [31:0] $end
$var wire 32 \ data1_i [31:0] $end
$var wire 32 ] data0_i [31:0] $end
$upscope $end
$scope module Mux_PC_Source $end
$var wire 32 ^ data0_i [31:0] $end
$var wire 32 _ data1_i [31:0] $end
$var wire 1 ` select_i $end
$var wire 32 a data_o [31:0] $end
$upscope $end
$scope module Mux_Write_Reg $end
$var wire 5 b data0_i [4:0] $end
$var wire 5 c data1_i [4:0] $end
$var wire 1 ; select_i $end
$var wire 5 d data_o [4:0] $end
$upscope $end
$scope module Mux_if_sra $end
$var wire 32 e data1_i [31:0] $end
$var wire 1 f select_i $end
$var wire 32 g data_o [31:0] $end
$var wire 32 h data0_i [31:0] $end
$upscope $end
$scope module PC $end
$var wire 1 ! clk_i $end
$var wire 1 " rst_i $end
$var wire 32 i pc_in_i [31:0] $end
$var reg 32 j pc_out_o [31:0] $end
$upscope $end
$scope module PC_Jump $end
$var wire 32 k data0_i [31:0] $end
$var wire 1 l select_i $end
$var wire 32 m data_o [31:0] $end
$var wire 32 n data1_i [31:0] $end
$upscope $end
$scope module RF $end
$var wire 5 o RSaddr_i [4:0] $end
$var wire 32 p RSdata_o [31:0] $end
$var wire 5 q RTaddr_i [4:0] $end
$var wire 32 r RTdata_o [31:0] $end
$var wire 1 : RegWrite_i $end
$var wire 1 ! clk_i $end
$var wire 1 " rst_i $end
$var wire 32 s RDdata_i [31:0] $end
$var wire 5 t RDaddr_i [4:0] $end
$upscope $end
$scope module SE $end
$var wire 3 u ALUOp_i [2:0] $end
$var wire 16 v data_i [15:0] $end
$var wire 6 w funct_i [5:0] $end
$var wire 6 x op_i [5:0] $end
$var reg 32 y data_o [31:0] $end
$upscope $end
$scope module Shifter $end
$var wire 32 z data_i [31:0] $end
$var wire 32 { data_o [31:0] $end
$upscope $end
$scope module get_RDdata_without_lw $end
$var wire 32 | data0_i [31:0] $end
$var wire 32 } data1_i [31:0] $end
$var wire 1 ~ select_i $end
$var wire 32 !" data_o [31:0] $end
$upscope $end
$scope module get_branch_res $end
$var wire 6 "" instr_op_i [5:0] $end
$var wire 32 #" src1_i [31:0] $end
$var wire 32 $" src2_i [31:0] $end
$var reg 1 4 branch_res_o $end
$upscope $end
$scope module get_final_RDaddr $end
$var wire 5 %" data0_i [4:0] $end
$var wire 5 &" data1_i [4:0] $end
$var wire 1 '" select_i $end
$var wire 5 (" data_o [4:0] $end
$upscope $end
$scope module get_final_RDdata $end
$var wire 32 )" data0_i [31:0] $end
$var wire 32 *" data1_i [31:0] $end
$var wire 1 = select_i $end
$var wire 32 +" data_o [31:0] $end
$upscope $end
$scope module get_jump_lower $end
$var wire 32 ," data_i [31:0] $end
$var wire 32 -" data_o [31:0] $end
$upscope $end
$scope module get_jump_whole $end
$var wire 32 ." data0_i [31:0] $end
$var wire 32 /" data1_i [31:0] $end
$var wire 1 @ select_i $end
$var wire 32 0" data_o [31:0] $end
$upscope $end
$upscope $end
$upscope $end
$enddefinitions $end
#0
$dumpvars
bx 0"
bx00 /"
bx ."
b0xxxxxxxxxxxxxxxxxxxxxxxxxx00 -"
b0xxxxxxxxxxxxxxxxxxxxxxxxxx ,"
bx +"
bx *"
bx )"
bx ("
x'"
b11111 &"
bx %"
bx $"
bx #"
bx ""
bx !"
x~
bx }
bx |
bx00 {
bx z
bx y
bx x
bx w
bx v
bx u
bx t
bx s
bx r
bx q
bx p
bx o
bx n
bx m
xl
bx k
bx j
bx i
bx h
bx g
xf
b0xxxxx e
bx d
bx c
bx b
bx a
x`
bx _
bx ^
bx ]
bx \
bx [
b100000 Z
bx Y
bx X
bx W
bx V
bx U
b10000000 T
bx S
bx R
bx Q
bx00 P
bx O
bx N
bx M
bx L
b100 K
bx J
bx I
bx H
bx G
bx F
bx E
bx D
bx C
xB
xA
x@
x?
x>
x=
bx <
x;
x:
bx 9
bx 8
bx 7
bx 6
x5
x4
bx 3
bx 2
bx00 1
bx 0
b0xxxxxxxxxxxxxxxxxxxxxxxxxx00 /
bx .
bx -
bx ,
bx +
bx *
bx )
bx (
bx00 '
bx &
bx %
bx $
bx #
0"
0!
$end
#25000
b100 +
b100 i
b100 m
b0 2
b0 s
b0 +"
15
b100 ,
b100 a
b100 k
b0 <
b0 !"
b0 )"
b0 3
b0 t
b0 ("
b0 8
b0 J
b0 Q
b0 |
b10001000 &
b10001000 O
b10001000 _
b10000100 '
b10000100 P
b10000100 {
0`
0~
0'"
b0 6
b0 H
b0 [
b0 $"
0l
b10000100 /
b10000100 -"
b100001 (
b100001 \
b100001 y
b100001 z
b10 9
b10 F
b10 G
0=
0>
0?
0@
b10 C
b10 E
b10 W
b10 u
0A
1:
0B
1;
b0 7
b0 I
b0 g
b0 #"
b0 %
b0 d
b0 %"
b0 0
b0 n
b0 0"
b0 ""
b100001 ,"
0f
b0 e
b100001 w
b0 x
b100001 v
b100001 D
b100001 U
b0 V
b0 #
b0 R
b0 ]
b0 r
b0 q
b0 $
b0 h
b0 p
b0 ."
b0 o
b0 c
b0 b
b10000100 1
b10000100 /"
b100001 *
b100001 X
b100 -
b100 L
b100 N
b100 ^
b100 }
b0 )
b0 M
b0 Y
b0 j
1!
#50000
0!
1"
#75000
b100 2
b100 s
b100 +"
05
b100 <
b100 !"
b100 )"
b100 8
b100 J
b100 Q
b100 |
b100 3
b100 t
b100 ("
b10000 '
b10000 P
b10000 {
b100 6
b100 H
b100 [
b100 $"
b100 %
b100 d
b100 %"
b100000000000000010000 /
b100000000000000010000 -"
b100 (
b100 \
b100 y
b100 z
b0 C
b0 E
b0 W
b0 u
1B
0;
b1000 +
b1000 i
b1000 m
b1000 ""
b1000000000000000100 ,"
b100 w
b1000 x
b100 v
b100 D
b100 U
b1000 V
b100 q
b100 b
b100000000100000000000000010000 1
b100000000100000000000000010000 /"
b1000 ,
b1000 a
b1000 k
b100000000001000000000000000100 *
b100000000001000000000000000100 X
b11000 &
b11000 O
b11000 _
b1000 -
b1000 L
b1000 N
b1000 ^
b1000 }
b100 )
b100 M
b100 Y
b100 j
1!
#100000
0!
#125000
b1 2
b1 s
b1 +"
b1 <
b1 !"
b1 )"
b1 8
b1 J
b1 Q
b1 |
b100000001001000000000000000100 1
b100000001001000000000000000100 /"
b100 '
b100 P
b100 {
b1 6
b1 H
b1 [
b1 $"
b1001 3
b1001 t
b1001 ("
b1001000000000000000100 /
b1001000000000000000100 -"
b1 (
b1 \
b1 y
b1 z
b1001 %
b1001 d
b1001 %"
b1100 +
b1100 i
b1100 m
b10010000000000000001 ,"
b1 w
b1 v
b1 D
b1 U
b1001 q
b1001 b
b1100 ,
b1100 a
b1100 k
b100000000010010000000000000001 *
b100000000010010000000000000001 X
b10000 &
b10000 O
b10000 _
b1100 -
b1100 L
b1100 N
b1100 ^
b1100 }
b1000 )
b1000 M
b1000 Y
b1000 j
b0 #
b0 R
b0 ]
b0 r
1!
#150000
0!
#175000
b10000 2
b10000 s
b10000 +"
15
b10000 <
b10000 !"
b10000 )"
b0 8
b0 J
b0 Q
b0 |
b10100 '
b10100 P
b10100 {
b10100 0
b10100 n
b10100 0"
1~
1'"
1l
b0 6
b0 H
b0 [
b0 $"
b11111 3
b11111 t
b11111 ("
b10100 /
b10100 -"
b101 (
b101 \
b101 y
b101 z
1@
0B
b0 %
b0 d
b0 %"
b10100 +
b10100 i
b10100 m
b11 ""
b101 ,"
b101 w
b11 x
b101 v
b101 D
b101 U
b11 V
b0 q
b0 b
b10100 1
b10100 /"
b10000 ,
b10000 a
b10000 k
b1100000000000000000000000101 *
b1100000000000000000000000101 X
b100100 &
b100100 O
b100100 _
b10000 -
b10000 L
b10000 N
b10000 ^
b10000 }
b1100 )
b1100 M
b1100 Y
b1100 j
b0 #
b0 R
b0 ]
b0 r
1!
#200000
0!
#225000
05
b11101 3
b11101 t
b11101 ("
b11111111111111111111111111110100 8
b11111111111111111111111111110100 J
b11111111111111111111111111110100 Q
b11111111111111111111111111110100 |
b11111111111111111111111111010000 '
b11111111111111111111111111010000 P
b11111111111111111111111111010000 {
0~
0'"
0l
b11111111111111111111111111110100 6
b11111111111111111111111111110100 H
b11111111111111111111111111110100 [
b11111111111111111111111111110100 $"
b11000 +
b11000 i
b11000 m
b1110111101111111111111010000 /
b1110111101111111111111010000 -"
b11111111111111111111111111110100 (
b11111111111111111111111111110100 \
b11111111111111111111111111110100 y
b11111111111111111111111111110100 z
0@
1B
b11101 %
b11101 d
b11101 %"
b0 0
b0 n
b0 0"
b11111111111111111111111111110100 2
b11111111111111111111111111110100 s
b11111111111111111111111111110100 +"
b1000 ""
b11101111011111111111110100 ,"
b11111 e
b110100 w
b1000 x
b1111111111110100 v
b110100 D
b110100 U
b1000 V
b11101 q
b11101 o
b11111 c
b11101 b
b101110111101111111111111010000 1
b101110111101111111111111010000 /"
b11000 ,
b11000 a
b11000 k
b11111111111111111111111111110100 <
b11111111111111111111111111110100 !"
b11111111111111111111111111110100 )"
b100011101111011111111111110100 *
b100011101111011111111111110100 X
b11111111111111111111111111101000 &
b11111111111111111111111111101000 O
b11111111111111111111111111101000 _
b11000 -
b11000 L
b11000 N
b11000 ^
b11000 }
b10100 )
b10100 M
b10100 Y
b10100 j
1!
#250000
0!
#275000
b11111111111111111111111111110100 2
b11111111111111111111111111110100 s
b11111111111111111111111111110100 +"
b0 '
b0 P
b0 {
b0 6
b0 H
b0 [
b0 $"
b11111 3
b11111 t
b11111 ("
b11111111111111111111111111110100 <
b11111111111111111111111111110100 !"
b11111111111111111111111111110100 )"
b1110111111000000000000000000 /
b1110111111000000000000000000 -"
b0 (
b0 \
b0 y
b0 z
1>
0:
b11111 %
b11111 d
b11111 %"
b11100 +
b11100 i
b11100 m
b11111111111111111111111111110100 8
b11111111111111111111111111110100 J
b11111111111111111111111111110100 Q
b11111111111111111111111111110100 |
b101011 ""
b11101111110000000000000000 ,"
b0 e
b0 w
b101011 x
b0 v
b0 D
b0 U
b101011 V
b11111 q
b0 c
b11111 b
b10101110111111000000000000000000 1
b10101110111111000000000000000000 /"
b11100 ,
b11100 a
b11100 k
b11111111111111111111111111110100 0
b11111111111111111111111111110100 n
b11111111111111111111111111110100 0"
b11111111111111111111111111110100 7
b11111111111111111111111111110100 I
b11111111111111111111111111110100 g
b11111111111111111111111111110100 #"
b10101111101111110000000000000000 *
b10101111101111110000000000000000 X
b11100 &
b11100 O
b11100 _
b11100 -
b11100 L
b11100 N
b11100 ^
b11100 }
b11000 )
b11000 M
b11000 Y
b11000 j
b11111111111111111111111111110100 $
b11111111111111111111111111110100 h
b11111111111111111111111111110100 p
b11111111111111111111111111110100 ."
b10000 #
b10000 R
b10000 ]
b10000 r
1!
#300000
0!
#325000
b11111111111111111111111111111000 2
b11111111111111111111111111111000 s
b11111111111111111111111111111000 +"
b11111111111111111111111111111000 <
b11111111111111111111111111111000 !"
b11111111111111111111111111111000 )"
b11111111111111111111111111111000 8
b11111111111111111111111111111000 J
b11111111111111111111111111111000 Q
b11111111111111111111111111111000 |
b10101110110000000000000000010000 1
b10101110110000000000000000010000 /"
b10000 '
b10000 P
b10000 {
b100 6
b100 H
b100 [
b100 $"
b10000 3
b10000 t
b10000 ("
b1110110000000000000000010000 /
b1110110000000000000000010000 -"
b100 (
b100 \
b100 y
b100 z
b10000 %
b10000 d
b10000 %"
b100000 +
b100000 i
b100000 m
b11101100000000000000000100 ,"
b100 w
b100 v
b100 D
b100 U
b0 #
b0 R
b0 ]
b0 r
b10000 q
b10000 b
b100000 ,
b100000 a
b100000 k
b10101111101100000000000000000100 *
b10101111101100000000000000000100 X
b110000 &
b110000 O
b110000 _
b100000 -
b100000 L
b100000 N
b100000 ^
b100000 }
b11100 )
b11100 M
b11100 Y
b11100 j
1!
#350000
0!
#375000
b11111111111111111111111111111100 2
b11111111111111111111111111111100 s
b11111111111111111111111111111100 +"
b11111111111111111111111111111100 <
b11111111111111111111111111111100 !"
b11111111111111111111111111111100 )"
b11111111111111111111111111111100 8
b11111111111111111111111111111100 J
b11111111111111111111111111111100 Q
b11111111111111111111111111111100 |
b10101110110001000000000000100000 1
b10101110110001000000000000100000 /"
b100000 '
b100000 P
b100000 {
b1000 6
b1000 H
b1000 [
b1000 $"
b10001 3
b10001 t
b10001 ("
b1110110001000000000000100000 /
b1110110001000000000000100000 -"
b1000 (
b1000 \
b1000 y
b1000 z
b10001 %
b10001 d
b10001 %"
b100100 +
b100100 i
b100100 m
b11101100010000000000001000 ,"
b1000 w
b1000 v
b1000 D
b1000 U
b10001 q
b10001 b
b100100 ,
b100100 a
b100100 k
b10101111101100010000000000001000 *
b10101111101100010000000000001000 X
b1000100 &
b1000100 O
b1000100 _
b100100 -
b100100 L
b100100 N
b100100 ^
b100100 }
b100000 )
b100000 M
b100000 Y
b100000 j
1!
#400000
0!
#425000
b100 2
b100 s
b100 +"
b100 <
b100 !"
b100 )"
b11111111111111100000000010000100 '
b11111111111111100000000010000100 P
b11111111111111100000000010000100 {
b0 6
b0 H
b0 [
b0 $"
b100 8
b100 J
b100 Q
b100 |
b10000 3
b10000 t
b10000 ("
b10000000100000000010000100 /
b10000000100000000010000100 -"
b11111111111111111000000000100001 (
b11111111111111111000000000100001 \
b11111111111111111000000000100001 y
b11111111111111111000000000100001 z
0>
b10 C
b10 E
b10 W
b10 u
1:
0B
1;
b100 0
b100 n
b100 0"
b100 7
b100 I
b100 g
b100 #"
b10000 %
b10000 d
b10000 %"
b101000 +
b101000 i
b101000 m
b0 ""
b100000001000000000100001 ,"
b100001 w
b0 x
b1000000000100001 v
b100001 D
b100001 U
b0 V
b0 q
b100 $
b100 h
b100 p
b100 ."
b100 o
b10000 c
b0 b
b10000000100000000010000100 1
b10000000100000000010000100 /"
b101000 ,
b101000 a
b101000 k
b100000001000000000100001 *
b100000001000000000100001 X
b11111111111111100000000010101100 &
b11111111111111100000000010101100 O
b11111111111111100000000010101100 _
b101000 -
b101000 L
b101000 N
b101000 ^
b101000 }
b100100 )
b100100 M
b100100 Y
b100100 j
1!
#450000
0!
#475000
b110000 '
b110000 P
b110000 {
b0 3
b0 t
b0 ("
04
b1000000000000000000000110000 /
b1000000000000000000000110000 -"
b1100 (
b1100 \
b1100 y
b1100 z
b0 C
b0 E
b0 W
b0 u
1A
0:
0;
b0 %
b0 d
b0 %"
b101100 +
b101100 i
b101100 m
b100 ""
b10000000000000000000001100 ,"
b1100 w
b100 x
b1100 v
b1100 D
b1100 U
b100 V
b10000 o
b0 c
b11000000000000000000000110000 1
b11000000000000000000000110000 /"
b101100 ,
b101100 a
b101100 k
b10010000000000000000000001100 *
b10010000000000000000000001100 X
b1011100 &
b1011100 O
b1011100 _
b101100 -
b101100 L
b101100 N
b101100 ^
b101100 }
b101000 )
b101000 M
b101000 Y
b101000 j
1!
#500000
0!
#525000
b101 2
b101 s
b101 +"
b101 <
b101 !"
b101 )"
b11000001001000000000000101100 1
b11000001001000000000000101100 /"
b101100 '
b101100 P
b101100 {
b101 8
b101 J
b101 Q
b101 |
b1001 3
b1001 t
b1001 ("
b1000001001000000000000101100 /
b1000001001000000000000101100 -"
b1011 (
b1011 \
b1011 y
b1011 z
b1 6
b1 H
b1 [
b1 $"
b1001 %
b1001 d
b1001 %"
b110000 +
b110000 i
b110000 m
b10000010010000000000001011 ,"
b1011 w
b1011 v
b1011 D
b1011 U
b1 #
b1 R
b1 ]
b1 r
b1001 q
b1001 b
b110000 ,
b110000 a
b110000 k
b10010000010010000000000001011 *
b10010000010010000000000001011 X
b1011100 &
b1011100 O
b1011100 _
b110000 -
b110000 L
b110000 N
b110000 ^
b110000 }
b101100 )
b101100 M
b101100 Y
b101100 j
1!
#550000
0!
#575000
b11 2
b11 s
b11 +"
b11 <
b11 !"
b11 )"
b11111111111111111111111111111100 '
b11111111111111111111111111111100 P
b11111111111111111111111111111100 {
b11 8
b11 J
b11 Q
b11 |
b100 3
b100 t
b100 ("
b1000000100111111111111111100 /
b1000000100111111111111111100 -"
b11111111111111111111111111111111 (
b11111111111111111111111111111111 \
b11111111111111111111111111111111 y
b11111111111111111111111111111111 z
0A
1:
1B
b11111111111111111111111111111111 6
b11111111111111111111111111111111 H
b11111111111111111111111111111111 [
b11111111111111111111111111111111 $"
b100 %
b100 d
b100 %"
b110100 +
b110100 i
b110100 m
b1000 ""
b10000001001111111111111111 ,"
b11111 e
b111111 w
b1000 x
b1111111111111111 v
b111111 D
b111111 U
b1000 V
b100 #
b100 R
b100 ]
b100 r
b100 q
b11111 c
b100 b
b101000000100111111111111111100 1
b101000000100111111111111111100 /"
b110100 ,
b110100 a
b110100 k
b100010000001001111111111111111 *
b100010000001001111111111111111 X
b110000 &
b110000 O
b110000 _
b110100 -
b110100 L
b110100 N
b110100 ^
b110100 }
b110000 )
b110000 M
b110000 Y
b110000 j
1!
#600000
0!
#625000
15
b111000 2
b111000 s
b111000 +"
b111000 <
b111000 !"
b111000 )"
b10100 '
b10100 P
b10100 {
1~
1'"
1l
b0 6
b0 H
b0 [
b0 $"
b0 8
b0 J
b0 Q
b0 |
b11111 3
b11111 t
b11111 ("
b10100 /
b10100 -"
b101 (
b101 \
b101 y
b101 z
1@
0B
b10100 0
b10100 n
b10100 0"
b0 7
b0 I
b0 g
b0 #"
b0 %
b0 d
b0 %"
b10100 +
b10100 i
b10100 m
b11 ""
b101 ,"
b0 e
b101 w
b11 x
b101 v
b101 D
b101 U
b11 V
b0 q
b0 $
b0 h
b0 p
b0 ."
b0 o
b0 c
b0 b
b10100 1
b10100 /"
b111000 ,
b111000 a
b111000 k
b1100000000000000000000000101 *
b1100000000000000000000000101 X
b1001100 &
b1001100 O
b1001100 _
b111000 -
b111000 L
b111000 N
b111000 ^
b111000 }
b110100 )
b110100 M
b110100 Y
b110100 j
b0 #
b0 R
b0 ]
b0 r
1!
#650000
0!
#675000
b11101 3
b11101 t
b11101 ("
05
b11111111111111111111111111010000 '
b11111111111111111111111111010000 P
b11111111111111111111111111010000 {
0~
0'"
0l
b11111111111111111111111111101000 8
b11111111111111111111111111101000 J
b11111111111111111111111111101000 Q
b11111111111111111111111111101000 |
b11000 +
b11000 i
b11000 m
b1110111101111111111111010000 /
b1110111101111111111111010000 -"
b11111111111111111111111111110100 (
b11111111111111111111111111110100 \
b11111111111111111111111111110100 y
b11111111111111111111111111110100 z
0@
1B
b11111111111111111111111111110100 6
b11111111111111111111111111110100 H
b11111111111111111111111111110100 [
b11111111111111111111111111110100 $"
b11111111111111111111111111110100 7
b11111111111111111111111111110100 I
b11111111111111111111111111110100 g
b11111111111111111111111111110100 #"
b11101 %
b11101 d
b11101 %"
b11111111111111111111111111110100 0
b11111111111111111111111111110100 n
b11111111111111111111111111110100 0"
b11111111111111111111111111101000 2
b11111111111111111111111111101000 s
b11111111111111111111111111101000 +"
b1000 ""
b11101111011111111111110100 ,"
b11111 e
b110100 w
b1000 x
b1111111111110100 v
b110100 D
b110100 U
b1000 V
b11111111111111111111111111110100 #
b11111111111111111111111111110100 R
b11111111111111111111111111110100 ]
b11111111111111111111111111110100 r
b11101 q
b11111111111111111111111111110100 $
b11111111111111111111111111110100 h
b11111111111111111111111111110100 p
b11111111111111111111111111110100 ."
b11101 o
b11111 c
b11101 b
b101110111101111111111111010000 1
b101110111101111111111111010000 /"
b11000 ,
b11000 a
b11000 k
b11111111111111111111111111101000 <
b11111111111111111111111111101000 !"
b11111111111111111111111111101000 )"
b100011101111011111111111110100 *
b100011101111011111111111110100 X
b11111111111111111111111111101000 &
b11111111111111111111111111101000 O
b11111111111111111111111111101000 _
b11000 -
b11000 L
b11000 N
b11000 ^
b11000 }
b10100 )
b10100 M
b10100 Y
b10100 j
1!
#700000
0!
#725000
b11111111111111111111111111101000 2
b11111111111111111111111111101000 s
b11111111111111111111111111101000 +"
b0 '
b0 P
b0 {
b0 6
b0 H
b0 [
b0 $"
b11111 3
b11111 t
b11111 ("
b11111111111111111111111111101000 <
b11111111111111111111111111101000 !"
b11111111111111111111111111101000 )"
b1110111111000000000000000000 /
b1110111111000000000000000000 -"
b0 (
b0 \
b0 y
b0 z
1>
0:
b11111 %
b11111 d
b11111 %"
b11100 +
b11100 i
b11100 m
b11111111111111111111111111101000 8
b11111111111111111111111111101000 J
b11111111111111111111111111101000 Q
b11111111111111111111111111101000 |
b101011 ""
b11101111110000000000000000 ,"
b0 e
b0 w
b101011 x
b0 v
b0 D
b0 U
b101011 V
b11111 q
b0 c
b11111 b
b10101110111111000000000000000000 1
b10101110111111000000000000000000 /"
b11100 ,
b11100 a
b11100 k
b11111111111111111111111111101000 0
b11111111111111111111111111101000 n
b11111111111111111111111111101000 0"
b11111111111111111111111111101000 7
b11111111111111111111111111101000 I
b11111111111111111111111111101000 g
b11111111111111111111111111101000 #"
b10101111101111110000000000000000 *
b10101111101111110000000000000000 X
b11100 &
b11100 O
b11100 _
b11100 -
b11100 L
b11100 N
b11100 ^
b11100 }
b11000 )
b11000 M
b11000 Y
b11000 j
b11111111111111111111111111101000 $
b11111111111111111111111111101000 h
b11111111111111111111111111101000 p
b11111111111111111111111111101000 ."
b111000 #
b111000 R
b111000 ]
b111000 r
1!
#750000
0!
#775000
b11111111111111111111111111101100 2
b11111111111111111111111111101100 s
b11111111111111111111111111101100 +"
b11111111111111111111111111101100 <
b11111111111111111111111111101100 !"
b11111111111111111111111111101100 )"
b11111111111111111111111111101100 8
b11111111111111111111111111101100 J
b11111111111111111111111111101100 Q
b11111111111111111111111111101100 |
b10101110110000000000000000010000 1
b10101110110000000000000000010000 /"
b10000 '
b10000 P
b10000 {
b100 6
b100 H
b100 [
b100 $"
b10000 3
b10000 t
b10000 ("
b1110110000000000000000010000 /
b1110110000000000000000010000 -"
b100 (
b100 \
b100 y
b100 z
b10000 %
b10000 d
b10000 %"
b100000 +
b100000 i
b100000 m
b11101100000000000000000100 ,"
b100 w
b100 v
b100 D
b100 U
b100 #
b100 R
b100 ]
b100 r
b10000 q
b10000 b
b100000 ,
b100000 a
b100000 k
b10101111101100000000000000000100 *
b10101111101100000000000000000100 X
b110000 &
b110000 O
b110000 _
b100000 -
b100000 L
b100000 N
b100000 ^
b100000 }
b11100 )
b11100 M
b11100 Y
b11100 j
1!
#800000
0!
#825000
b11111111111111111111111111110000 2
b11111111111111111111111111110000 s
b11111111111111111111111111110000 +"
b11111111111111111111111111110000 <
b11111111111111111111111111110000 !"
b11111111111111111111111111110000 )"
b11111111111111111111111111110000 8
b11111111111111111111111111110000 J
b11111111111111111111111111110000 Q
b11111111111111111111111111110000 |
b10101110110001000000000000100000 1
b10101110110001000000000000100000 /"
b100000 '
b100000 P
b100000 {
b1000 6
b1000 H
b1000 [
b1000 $"
b10001 3
b10001 t
b10001 ("
b1110110001000000000000100000 /
b1110110001000000000000100000 -"
b1000 (
b1000 \
b1000 y
b1000 z
b10001 %
b10001 d
b10001 %"
b100100 +
b100100 i
b100100 m
b11101100010000000000001000 ,"
b1000 w
b1000 v
b1000 D
b1000 U
b0 #
b0 R
b0 ]
b0 r
b10001 q
b10001 b
b100100 ,
b100100 a
b100100 k
b10101111101100010000000000001000 *
b10101111101100010000000000001000 X
b1000100 &
b1000100 O
b1000100 _
b100100 -
b100100 L
b100100 N
b100100 ^
b100100 }
b100000 )
b100000 M
b100000 Y
b100000 j
1!
#850000
0!
#875000
b11 2
b11 s
b11 +"
b11 <
b11 !"
b11 )"
b11111111111111100000000010000100 '
b11111111111111100000000010000100 P
b11111111111111100000000010000100 {
b0 6
b0 H
b0 [
b0 $"
b11 8
b11 J
b11 Q
b11 |
b10000 3
b10000 t
b10000 ("
b10000000100000000010000100 /
b10000000100000000010000100 -"
b11111111111111111000000000100001 (
b11111111111111111000000000100001 \
b11111111111111111000000000100001 y
b11111111111111111000000000100001 z
0>
b10 C
b10 E
b10 W
b10 u
1:
0B
1;
b11 0
b11 n
b11 0"
b11 7
b11 I
b11 g
b11 #"
b10000 %
b10000 d
b10000 %"
b101000 +
b101000 i
b101000 m
b0 ""
b100000001000000000100001 ,"
b100001 w
b0 x
b1000000000100001 v
b100001 D
b100001 U
b0 V
b0 q
b11 $
b11 h
b11 p
b11 ."
b100 o
b10000 c
b0 b
b10000000100000000010000100 1
b10000000100000000010000100 /"
b101000 ,
b101000 a
b101000 k
b100000001000000000100001 *
b100000001000000000100001 X
b11111111111111100000000010101100 &
b11111111111111100000000010101100 O
b11111111111111100000000010101100 _
b101000 -
b101000 L
b101000 N
b101000 ^
b101000 }
b100100 )
b100100 M
b100100 Y
b100100 j
1!
#900000
0!
#925000
b110000 '
b110000 P
b110000 {
b0 3
b0 t
b0 ("
b1000000000000000000000110000 /
b1000000000000000000000110000 -"
b1100 (
b1100 \
b1100 y
b1100 z
b0 C
b0 E
b0 W
b0 u
1A
0:
0;
b0 %
b0 d
b0 %"
b101100 +
b101100 i
b101100 m
b100 ""
b10000000000000000000001100 ,"
b1100 w
b100 x
b1100 v
b1100 D
b1100 U
b100 V
b10000 o
b0 c
b11000000000000000000000110000 1
b11000000000000000000000110000 /"
b101100 ,
b101100 a
b101100 k
b10010000000000000000000001100 *
b10010000000000000000000001100 X
b1011100 &
b1011100 O
b1011100 _
b101100 -
b101100 L
b101100 N
b101100 ^
b101100 }
b101000 )
b101000 M
b101000 Y
b101000 j
1!
#950000
0!
#975000
b100 2
b100 s
b100 +"
b100 <
b100 !"
b100 )"
b11000001001000000000000101100 1
b11000001001000000000000101100 /"
b101100 '
b101100 P
b101100 {
b100 8
b100 J
b100 Q
b100 |
b1001 3
b1001 t
b1001 ("
b1000001001000000000000101100 /
b1000001001000000000000101100 -"
b1011 (
b1011 \
b1011 y
b1011 z
b1 6
b1 H
b1 [
b1 $"
b1001 %
b1001 d
b1001 %"
b110000 +
b110000 i
b110000 m
b10000010010000000000001011 ,"
b1011 w
b1011 v
b1011 D
b1011 U
b1 #
b1 R
b1 ]
b1 r
b1001 q
b1001 b
b110000 ,
b110000 a
b110000 k
b10010000010010000000000001011 *
b10010000010010000000000001011 X
b1011100 &
b1011100 O
b1011100 _
b110000 -
b110000 L
b110000 N
b110000 ^
b110000 }
b101100 )
b101100 M
b101100 Y
b101100 j
1!
#1000000
0!
