Lab3/code/tb_wave.vcd
$date
	Sun May 19 09:41:31 2019
$end
$version
	Icarus Verilog
$end
$timescale
	1ps
$end
$scope module TestBench $end
$scope module CPU $end
$var wire 1 ! clk_i $end
$var wire 1 " rst_i $end
$var wire 32 # reg_rt [31:0] $end
$var wire 32 $ reg_rs [31:0] $end
$var wire 5 % reg_dst [4:0] $end
$var wire 32 & pc_se_sl2_PLUS_pc_4 [31:0] $end
$var wire 32 ' pc_se_sl2 [31:0] $end
$var wire 32 ( pc_se [31:0] $end
$var wire 32 ) pc_output [31:0] $end
$var wire 32 * pc_instr [31:0] $end
$var wire 32 + pc_input [31:0] $end
$var wire 32 , pc_address_without_jump [31:0] $end
$var wire 32 - pc_4 [31:0] $end
$var wire 32 . mem_res_lw [31:0] $end
$var wire 32 / lower_jump [31:0] $end
$var wire 32 0 jump_whole [31:0] $end
$var wire 32 1 j_jal [31:0] $end
$var wire 32 2 final_RDdata [31:0] $end
$var wire 5 3 final_RDaddr [4:0] $end
$var wire 1 4 branch_res $end
$var wire 1 5 alu_zero $end
$var wire 32 6 alu_src2 [31:0] $end
$var wire 32 7 alu_src1 [31:0] $end
$var wire 32 8 alu_result [31:0] $end
$var wire 4 9 alu_ctrl [3:0] $end
$var wire 1 : RegWrite $end
$var wire 1 ; RegDst $end
$var wire 32 < RDdata_without_lw [31:0] $end
$var wire 1 = MemtoReg $end
$var wire 1 > MemWrite $end
$var wire 1 ? MemRead $end
$var wire 1 @ Jump $end
$var wire 1 A Branch $end
$var wire 1 B ALUSrc $end
$var wire 3 C ALUOp [2:0] $end
$scope module AC $end
$var wire 6 D funct_i [5:0] $end
$var wire 3 E ALUOp_i [2:0] $end
$var reg 4 F ALUCtrl_o [3:0] $end
$upscope $end
$scope module ALU $end
$var wire 4 G ctrl_i [3:0] $end
$var wire 1 5 zero_o $end
$var wire 32 H src2_i [31:0] $end
$var wire 32 I src1_i [31:0] $end
$var reg 32 J result_o [31:0] $end
$upscope $end
$scope module Adder1 $end
$var wire 32 K src2_i [31:0] $end
$var wire 32 L sum_o [31:0] $end
$var wire 32 M src1_i [31:0] $end
$upscope $end
$scope module Adder2 $end
$var wire 32 N src1_i [31:0] $end
$var wire 32 O sum_o [31:0] $end
$var wire 32 P src2_i [31:0] $end
$upscope $end
$scope module Data_Memory $end
$var wire 32 Q addr_i [31:0] $end
$var wire 1 ! clk_i $end
$var wire 32 R data_i [31:0] $end
$var wire 1 > MemWrite_i $end
$var wire 1 ? MemRead_i $end
$var reg 32 S data_o [31:0] $end
$var integer 32 T i [31:0] $end
$upscope $end
$scope module Decoder $end
$var wire 6 U func_code_i [5:0] $end
$var wire 6 V instr_op_i [5:0] $end
$var reg 1 B ALUSrc_o $end
$var reg 3 W ALU_op_o [2:0] $end
$var reg 1 A Branch_o $end
$var reg 1 @ Jump_o $end
$var reg 1 ? MemRead_o $end
$var reg 1 > MemWrite_o $end
$var reg 1 = MemtoReg_o $end
$var reg 1 ; RegDst_o $end
$var reg 1 : RegWrite_o $end
$upscope $end
$scope module IM $end
$var wire 32 X instr_o [31:0] $end
$var wire 32 Y addr_i [31:0] $end
$var integer 32 Z i [31:0] $end
$upscope $end
$scope module Mux_ALUSrc $end
$var wire 1 B select_i $end
$var wire 32 [ data_o [31:0] $end
$var wire 32 \ data1_i [31:0] $end
$var wire 32 ] data0_i [31:0] $end
$upscope $end
$scope module Mux_PC_Source $end
$var wire 32 ^ data0_i [31:0] $end
$var wire 32 _ data1_i [31:0] $end
$var wire 1 ` select_i $end
$var wire 32 a data_o [31:0] $end
$upscope $end
$scope module Mux_Write_Reg $end
$var wire 5 b data0_i [4:0] $end
$var wire 5 c data1_i [4:0] $end
$var wire 1 ; select_i $end
$var wire 5 d data_o [4:0] $end
$upscope $end
$scope module Mux_if_sra $end
$var wire 32 e data1_i [31:0] $end
$var wire 1 f select_i $end
$var wire 32 g data_o [31:0] $end
$var wire 32 h data0_i [31:0] $end
$upscope $end
$scope module PC $end
$var wire 1 ! clk_i $end
$var wire 1 " rst_i $end
$var wire 32 i pc_in_i [31:0] $end
$var reg 32 j pc_out_o [31:0] $end
$upscope $end
$scope module PC_Jump $end
$var wire 32 k data0_i [31:0] $end
$var wire 1 @ select_i $end
$var wire 32 l data_o [31:0] $end
$var wire 32 m data1_i [31:0] $end
$upscope $end
$scope module RF $end
$var wire 5 n RSaddr_i [4:0] $end
$var wire 32 o RSdata_o [31:0] $end
$var wire 5 p RTaddr_i [4:0] $end
$var wire 32 q RTdata_o [31:0] $end
$var wire 1 : RegWrite_i $end
$var wire 1 ! clk_i $end
$var wire 1 " rst_i $end
$var wire 32 r RDdata_i [31:0] $end
$var wire 5 s RDaddr_i [4:0] $end
$upscope $end
$scope module SE $end
$var wire 3 t ALUOp_i [2:0] $end
$var wire 16 u data_i [15:0] $end
$var wire 6 v funct_i [5:0] $end
$var wire 6 w op_i [5:0] $end
$var reg 32 x data_o [31:0] $end
$upscope $end
$scope module Shifter $end
$var wire 32 y data_i [31:0] $end
$var wire 32 z data_o [31:0] $end
$upscope $end
$scope module get_RDdata_without_lw $end
$var wire 32 { data0_i [31:0] $end
$var wire 32 | data1_i [31:0] $end
$var wire 1 } select_i $end
$var wire 32 ~ data_o [31:0] $end
$upscope $end
$scope module get_branch_res $end
$var wire 6 !" instr_op_i [5:0] $end
$var wire 32 "" src1_i [31:0] $end
$var wire 32 #" src2_i [31:0] $end
$var reg 1 4 branch_res_o $end
$upscope $end
$scope module get_final_RDaddr $end
$var wire 5 $" data0_i [4:0] $end
$var wire 5 %" data1_i [4:0] $end
$var wire 1 &" select_i $end
$var wire 5 '" data_o [4:0] $end
$upscope $end
$scope module get_final_RDdata $end
$var wire 32 (" data0_i [31:0] $end
$var wire 32 )" data1_i [31:0] $end
$var wire 1 = select_i $end
$var wire 32 *" data_o [31:0] $end
$upscope $end
$scope module get_jump_lower $end
$var wire 32 +" data_i [31:0] $end
$var wire 32 ," data_o [31:0] $end
$upscope $end
$scope module get_jump_whole $end
$var wire 32 -" data0_i [31:0] $end
$var wire 32 ." data1_i [31:0] $end
$var wire 1 /" select_i $end
$var wire 32 0" data_o [31:0] $end
$upscope $end
$upscope $end
$upscope $end
$enddefinitions $end
#0
$dumpvars
bx 0"
x/"
bx ."
bx00 -"
b0xxxxxxxxxxxxxxxxxxxxxxxxxx00 ,"
b0xxxxxxxxxxxxxxxxxxxxxxxxxx +"
bx *"
bx )"
bx ("
bx '"
x&"
b11111 %"
bx $"
bx #"
bx ""
bx !"
bx ~
x}
bx |
bx {
bx00 z
bx y
bx x
bx w
bx v
bx u
bx t
bx s
bx r
bx q
bx p
bx o
bx n
bx m
bx l
bx k
bx j
bx i
bx h
bx g
xf
b0xxxxx e
bx d
bx c
bx b
bx a
x`
bx _
bx ^
bx ]
bx \
bx [
b100000 Z
bx Y
bx X
bx W
bx V
bx U
b10000000 T
bx S
bx R
bx Q
bx00 P
bx O
bx N
bx M
bx L
b100 K
bx J
bx I
bx H
bx G
bx F
bx E
bx D
bx C
xB
xA
x@
x?
x>
x=
bx <
x;
x:
bx 9
bx 8
bx 7
bx 6
x5
x4
bx 3
bx 2
bx00 1
bx 0
b0xxxxxxxxxxxxxxxxxxxxxxxxxx00 /
bx .
bx -
bx ,
bx +
bx *
bx )
bx (
bx00 '
bx &
bx %
bx $
bx #
0"
0!
$end
#25000
b0 2
b0 r
b0 *"
b100 +
b100 i
b100 l
15
b0 <
b0 ~
b0 ("
b0 3
b0 s
b0 '"
b100 ,
b100 a
b100 k
b0 8
b0 J
b0 Q
b0 {
b10001000 &
b10001000 O
b10001000 _
b10000100 '
b10000100 P
b10000100 z
0}
0&"
0`
b0 6
b0 H
b0 [
b0 #"
b10000100 /
b10000100 ,"
b100001 (
b100001 \
b100001 x
b100001 y
b10 9
b10 F
b10 G
0@
1:
0=
0>
0?
b10 C
b10 E
b10 W
b10 t
0A
0B
1;
b0 7
b0 I
b0 g
b0 ""
b0 %
b0 d
b0 $"
b10000100 0
b10000100 m
b10000100 0"
b0 !"
0/"
b100001 +"
0f
b0 e
b100001 v
b0 w
b100001 u
b100001 D
b100001 U
b0 V
b0 #
b0 R
b0 ]
b0 q
b0 p
b0 $
b0 h
b0 o
b0 ."
b0 n
b0 c
b0 b
b10000100 1
b10000100 -"
b100001 *
b100001 X
b100 -
b100 L
b100 N
b100 ^
b100 |
b0 )
b0 M
b0 Y
b0 j
1!
#50000
0!
1"
#75000
b1010 2
b1010 r
b1010 *"
05
b1010 <
b1010 ~
b1010 ("
b1010 8
b1010 J
b1010 Q
b1010 {
b1 3
b1 s
b1 '"
b101000 '
b101000 P
b101000 z
b1010 6
b1010 H
b1010 [
b1010 #"
b1 %
b1 d
b1 $"
b1000000000000101000 /
b1000000000000101000 ,"
b1010 (
b1010 \
b1010 x
b1010 y
b0 C
b0 E
b0 W
b0 t
1B
0;
b100000000001000000000000101000 0
b100000000001000000000000101000 m
b100000000001000000000000101000 0"
b1000 +
b1000 i
b1000 l
b1000 !"
b10000000000001010 +"
b1010 v
b1000 w
b1010 u
b1010 D
b1010 U
b1000 V
b1 p
b1 b
b100000000001000000000000101000 1
b100000000001000000000000101000 -"
b1000 ,
b1000 a
b1000 k
b100000000000010000000000001010 *
b100000000000010000000000001010 X
b110000 &
b110000 O
b110000 _
b1000 -
b1000 L
b1000 N
b1000 ^
b1000 |
b100 )
b100 M
b100 Y
b100 j
1!
#100000
0!
#125000
b1101 2
b1101 r
b1101 *"
b1101 <
b1101 ~
b1101 ("
b100000000010000000000000110100 0
b100000000010000000000000110100 m
b100000000010000000000000110100 0"
b1101 8
b1101 J
b1101 Q
b1101 {
b100000000010000000000000110100 1
b100000000010000000000000110100 -"
b110100 '
b110100 P
b110100 z
b1101 6
b1101 H
b1101 [
b1101 #"
b10 3
b10 s
b10 '"
b10000000000000110100 /
b10000000000000110100 ,"
b1101 (
b1101 \
b1101 x
b1101 y
b10 %
b10 d
b10 $"
b1100 +
b1100 i
b1100 l
b100000000000001101 +"
b1101 v
b1101 u
b1101 D
b1101 U
b10 p
b10 b
b1100 ,
b1100 a
b1100 k
b100000000000100000000000001101 *
b100000000000100000000000001101 X
b1000000 &
b1000000 O
b1000000 _
b1100 -
b1100 L
b1100 N
b1100 ^
b1100 |
b1000 )
b1000 M
b1000 Y
b1000 j
b0 #
b0 R
b0 ]
b0 q
1!
#150000
0!
#175000
b1100100 2
b1100100 r
b1100100 *"
b1100100 <
b1100100 ~
b1100100 ("
b110000001100000 '
b110000001100000 P
b110000001100000 z
b1010 6
b1010 H
b1010 [
b1010 #"
b1100100 8
b1100100 J
b1100100 Q
b1100100 {
b11 3
b11 s
b11 '"
b100001000110000001100000 /
b100001000110000001100000 ,"
b1100000011000 (
b1100000011000 \
b1100000011000 x
b1100000011000 y
b1010 9
b1010 F
b1010 G
b10 C
b10 E
b10 W
b10 t
0B
1;
b1010 7
b1010 I
b1010 g
b1010 ""
b11 %
b11 d
b11 $"
b100001000110000001100000 0
b100001000110000001100000 m
b100001000110000001100000 0"
b10000 +
b10000 i
b10000 l
b0 !"
b1000010001100000011000 +"
b11000 v
b0 w
b1100000011000 u
b11000 D
b11000 U
b0 V
b1 p
b1010 $
b1010 h
b1010 o
b1010 ."
b1 n
b11 c
b1 b
b100001000110000001100000 1
b100001000110000001100000 -"
b10000 ,
b10000 a
b10000 k
b1000010001100000011000 *
b1000010001100000011000 X
b110000001110000 &
b110000001110000 O
b110000001110000 _
b10000 -
b10000 L
b10000 N
b10000 ^
b10000 |
b1100 )
b1100 M
b1100 Y
b1100 j
b1010 #
b1010 R
b1010 ]
b1010 q
1!
#200000
0!
#225000
b0 2
b0 r
b0 *"
b1011100 0
b1011100 m
b1011100 0"
15
b0 <
b0 ~
b0 ("
b1011100 1
b1011100 -"
b1011100 '
b1011100 P
b1011100 z
b0 8
b0 J
b0 Q
b0 {
b0 3
b0 s
b0 '"
b1011100 /
b1011100 ,"
b10111 (
b10111 \
b10111 x
b10111 y
b10 9
b10 F
b10 G
0:
b0 C
b0 E
b0 W
b0 t
1@
0;
b0 6
b0 H
b0 [
b0 #"
b0 7
b0 I
b0 g
b0 ""
b0 %
b0 d
b0 $"
b1011100 +
b1011100 i
b1011100 l
b10 !"
b10111 +"
b10111 v
b10 w
b10111 u
b10111 D
b10111 U
b10 V
b0 #
b0 R
b0 ]
b0 q
b0 p
b0 $
b0 h
b0 o
b0 ."
b0 n
b0 c
b0 b
b10100 ,
b10100 a
b10100 k
b1000000000000000000000010111 *
b1000000000000000000000010111 X
b1110000 &
b1110000 O
b1110000 _
b10100 -
b10100 L
b10100 N
b10100 ^
b10100 |
b10000 )
b10000 M
b10000 Y
b10000 j
1!
#250000
0!
#275000
b1000001000100000010001100 0
b1000001000100000010001100 m
b1000001000100000010001100 0"
b1000001000100000010001100 1
b1000001000100000010001100 -"
b100000010001100 '
b100000010001100 P
b100000010001100 z
b1100000 +
b1100000 i
b1100000 l
b10 3
b10 s
b10 '"
b1000001000100000010001100 /
b1000001000100000010001100 ,"
b1000000100011 (
b1000000100011 \
b1000000100011 x
b1000000100011 y
b110 9
b110 F
b110 G
0@
1:
b10 C
b10 E
b10 W
b10 t
1;
b1010 6
b1010 H
b1010 [
b1010 #"
b1101 7
b1101 I
b1101 g
b1101 ""
b10 %
b10 d
b10 $"
b0 !"
b10000010001000000100011 +"
b100011 v
b0 w
b1000000100011 u
b100011 D
b100011 U
b0 V
b1010 #
b1010 R
b1010 ]
b1010 q
b1 p
b1101 $
b1101 h
b1101 o
b1101 ."
b10 n
b10 c
b1 b
b1100000 ,
b1100000 a
b1100000 k
b10000010001000000100011 *
b10000010001000000100011 X
b100000011101100 &
b100000011101100 O
b100000011101100 _
b1100000 -
b1100000 L
b1100000 N
b1100000 ^
b1100000 |
b1011100 )
b1011100 M
b1011100 Y
b1011100 j
1!
#300000
0!
#325000
b1100100 2
b1100100 r
b1100100 *"
b1100010001000000010000100 0
b1100010001000000010000100 m
b1100010001000000010000100 0"
05
b1100100 <
b1100100 ~
b1100100 ("
b1100010001000000010000100 1
b1100010001000000010000100 -"
b1000000010000100 '
b1000000010000100 P
b1000000010000100 z
b1100100 8
b1100100 J
b1100100 Q
b1100100 {
b100 3
b100 s
b100 '"
b1100010001000000010000100 /
b1100010001000000010000100 ,"
b10000000100001 (
b10000000100001 \
b10000000100001 x
b10000000100001 y
b10 9
b10 F
b10 G
b0 6
b0 H
b0 [
b0 #"
b100 %
b100 d
b100 $"
b1100100 +
b1100100 i
b1100100 l
b11000100010000000100001 +"
b100001 v
b10000000100001 u
b100001 D
b100001 U
b0 #
b0 R
b0 ]
b0 q
b10 p
b11 n
b100 c
b10 b
b1100100 ,
b1100100 a
b1100100 k
b1100100 7
b1100100 I
b1100100 g
b1100100 ""
b11000100010000000100001 *
b11000100010000000100001 X
b1000000011101000 &
b1000000011101000 O
b1000000011101000 _
b1100100 -
b1100100 L
b1100100 N
b1100100 ^
b1100100 |
b1100000 )
b1100000 M
b1100000 Y
b1100000 j
b1100100 $
b1100100 h
b1100100 o
b1100100 ."
1!
#350000
0!
#375000
b1010 2
b1010 r
b1010 *"
b1010 <
b1010 ~
b1010 ("
b11111111111111111111111111001000 '
b11111111111111111111111111001000 P
b11111111111111111111111111001000 z
b1010 8
b1010 J
b1010 Q
b1010 {
b10 3
b10 s
b10 '"
04
b100010111111111111001000 /
b100010111111111111001000 ,"
b11111111111111111111111111110010 (
b11111111111111111111111111110010 \
b11111111111111111111111111110010 x
b11111111111111111111111111110010 y
b0 C
b0 E
b0 W
b0 t
1A
0:
0;
b1010 7
b1010 I
b1010 g
b1010 ""
b10 %
b10 d
b10 $"
b10000100010111111111111001000 0
b10000100010111111111111001000 m
b10000100010111111111111001000 0"
b1101000 +
b1101000 i
b1101000 l
b100 !"
b1000101111111111110010 +"
b11111 e
b110010 v
b100 w
b1111111111110010 u
b110010 D
b110010 U
b100 V
b1010 $
b1010 h
b1010 o
b1010 ."
b1 n
b11111 c
b10000100010111111111111001000 1
b10000100010111111111111001000 -"
b1101000 ,
b1101000 a
b1101000 k
b10000001000101111111111110010 *
b10000001000101111111111110010 X
b110000 &
b110000 O
b110000 _
b1101000 -
b1101000 L
b1101000 N
b1101000 ^
b1101000 |
b1100100 )
b1100100 M
b1100100 Y
b1100100 j
1!
#400000
0!
#425000
b0 2
b0 r
b0 *"
15
b0 <
b0 ~
b0 ("
b10100 '
b10100 P
b10100 z
b0 8
b0 J
b0 Q
b0 {
b0 3
b0 s
b0 '"
b10100 /
b10100 ,"
b101 (
b101 \
b101 x
b101 y
1@
0A
b0 7
b0 I
b0 g
b0 ""
b0 %
b0 d
b0 $"
b10100 0
b10100 m
b10100 0"
b10100 +
b10100 i
b10100 l
b10 !"
b101 +"
b0 e
b101 v
b10 w
b101 u
b101 D
b101 U
b10 V
b0 p
b0 $
b0 h
b0 o
b0 ."
b0 n
b0 c
b0 b
b10100 1
b10100 -"
b1101100 ,
b1101100 a
b1101100 k
b1000000000000000000000000101 *
b1000000000000000000000000101 X
b10000000 &
b10000000 O
b10000000 _
b1101100 -
b1101100 L
b1101100 N
b1101100 ^
b1101100 |
b1101000 )
b1101000 M
b1101000 Y
b1101000 j
1!
#450000
0!
#475000
b1010 2
b1010 r
b1010 *"
05
b1010 <
b1010 ~
b1010 ("
b1010 8
b1010 J
b1010 Q
b1010 {
b101000 '
b101000 P
b101000 z
b1010 6
b1010 H
b1010 [
b1010 #"
b11000 +
b11000 i
b11000 l
b101000 /
b101000 ,"
b1010 (
b1010 \
b1010 x
b1010 y
0@
1:
1B
b110000000000000000000000101000 0
b110000000000000000000000101000 m
b110000000000000000000000101000 0"
b1111 !"
b1010 +"
b1010 v
b1111 w
b1010 u
b1010 D
b1010 U
b1111 V
b110000000000000000000000101000 1
b110000000000000000000000101000 -"
b11000 ,
b11000 a
b11000 k
b111100000000000000000000001010 *
b111100000000000000000000001010 X
b1000000 &
b1000000 O
b1000000 _
b11000 -
b11000 L
b11000 N
b11000 ^
b11000 |
b10100 )
b10100 M
b10100 Y
b10100 j
1!
#500000
0!
#525000
b110000000001000000000000010000 0
b110000000001000000000000010000 m
b110000000001000000000000010000 0"
b1110 2
b1110 r
b1110 *"
b110000000001000000000000010000 1
b110000000001000000000000010000 -"
b10000 '
b10000 P
b10000 z
b100 6
b100 H
b100 [
b100 #"
b1 3
b1 s
b1 '"
b1110 <
b1110 ~
b1110 ("
b1000000000000010000 /
b1000000000000010000 ,"
b100 (
b100 \
b100 x
b100 y
b1 %
b1 d
b1 $"
b11100 +
b11100 i
b11100 l
b1110 8
b1110 J
b1110 Q
b1110 {
b10000000000000100 +"
b100 v
b100 u
b100 D
b100 U
b1 p
b1 b
b11100 ,
b11100 a
b11100 k
b1010 7
b1010 I
b1010 g
b1010 ""
b111100000000010000000000000100 *
b111100000000010000000000000100 X
b101100 &
b101100 O
b101100 _
b11100 -
b11100 L
b11100 N
b11100 ^
b11100 |
b11000 )
b11000 M
b11000 Y
b11000 j
b1010 $
b1010 h
b1010 o
b1010 ."
b1010 #
b1010 R
b1010 ]
b1010 q
1!
#550000
0!
#575000
b10001100 2
b10001100 r
b10001100 *"
b10001100 <
b10001100 ~
b10001100 ("
b100 3
b100 s
b100 '"
b1000000001100000 '
b1000000001100000 P
b1000000001100000 z
b10001100 8
b10001100 J
b10001100 Q
b10001100 {
b1110 6
b1110 H
b1110 [
b1110 #"
b100 %
b100 d
b100 $"
b1001000000001100000 /
b1001000000001100000 ,"
b10000000011000 (
b10000000011000 \
b10000000011000 x
b10000000011000 y
b1010 9
b1010 F
b1010 G
b10 C
b10 E
b10 W
b10 t
0B
1;
b1001000000001100000 0
b1001000000001100000 m
b1001000000001100000 0"
b100000 +
b100000 i
b100000 l
b0 !"
b10010000000011000 +"
b11000 v
b0 w
b10000000011000 u
b11000 D
b11000 U
b0 V
b100 c
b1001000000001100000 1
b1001000000001100000 -"
b100000 ,
b100000 a
b100000 k
b10010000000011000 *
b10010000000011000 X
b1000000010000000 &
b1000000010000000 O
b1000000010000000 _
b100000 -
b100000 L
b100000 N
b100000 ^
b100000 |
b11100 )
b11100 M
b11100 Y
b11100 j
b1110 #
b1110 R
b1110 ]
b1110 q
1!
#600000
0!
#625000
b10010 2
b10010 r
b10010 *"
b10010 <
b10010 ~
b10010 ("
b100000 '
b100000 P
b100000 z
b10010 8
b10010 J
b10010 Q
b10010 {
b110 3
b110 s
b110 '"
b110000000000000100000 /
b110000000000000100000 ,"
b1000 (
b1000 \
b1000 x
b1000 y
b10 9
b10 F
b10 G
b0 C
b0 E
b0 W
b0 t
1B
0;
b1000 6
b1000 H
b1000 [
b1000 #"
b110 %
b110 d
b110 $"
b100000000110000000000000100000 0
b100000000110000000000000100000 m
b100000000110000000000000100000 0"
b100100 +
b100100 i
b100100 l
b1000 !"
b1100000000000001000 +"
b1000 v
b1000 w
b1000 u
b1000 D
b1000 U
b1000 V
b0 #
b0 R
b0 ]
b0 q
b110 p
b0 c
b110 b
b100000000110000000000000100000 1
b100000000110000000000000100000 -"
b100100 ,
b100100 a
b100100 k
b100000000001100000000000001000 *
b100000000001100000000000001000 X
b1000100 &
b1000100 O
b1000100 _
b100100 -
b100100 L
b100100 N
b100100 ^
b100100 |
b100000 )
b100000 M
b100000 Y
b100000 j
1!
#650000
0!
#675000
b0 3
b0 s
b0 '"
b10001100 '
b10001100 P
b10001100 z
b10010 6
b10010 H
b10010 [
b10010 #"
b0 %
b0 d
b0 $"
b10000110000000000010001100 /
b10000110000000000010001100 ,"
b100011 (
b100011 \
b100011 x
b100011 y
b110 9
b110 F
b110 G
b10 C
b10 E
b10 W
b10 t
0B
1;
b10001100 7
b10001100 I
b10001100 g
b10001100 ""
b10000110000000000010001100 0
b10000110000000000010001100 m
b10000110000000000010001100 0"
b101000 +
b101000 i
b101000 l
b0 !"
0/"
b100001100000000000100011 +"
b100011 v
b0 w
b100011 u
b100011 D
b100011 U
b0 V
b10001100 $
b10001100 h
b10001100 o
b10001100 ."
b100 n
b10000110000000000010001100 1
b10000110000000000010001100 -"
b101000 ,
b101000 a
b101000 k
b100001100000000000100011 *
b100001100000000000100011 X
b10110100 &
b10110100 O
b10110100 _
b101000 -
b101000 L
b101000 N
b101000 ^
b101000 |
b100100 )
b100100 M
b100100 Y
b100100 j
b10010 #
b10010 R
b10010 ]
b10010 q
1!
#700000
0!
#725000
b10010 2
b10010 r
b10010 *"
b1 3
b1 s
b1 '"
b10010 <
b10010 ~
b10010 ("
b0 '
b0 P
b0 z
b1 %
b1 d
b1 $"
b10010 8
b10010 J
b10010 Q
b10010 {
b1000000000000000000 /
b1000000000000000000 ,"
b0 (
b0 \
b0 x
b0 y
b10 9
b10 F
b10 G
b0 C
b0 E
b0 W
b0 t
1B
0;
b0 6
b0 H
b0 [
b0 #"
b10010 7
b10010 I
b10010 g
b10010 ""
b110000000001000000000000000000 0
b110000000001000000000000000000 m
b110000000001000000000000000000 0"
b101100 +
b101100 i
b101100 l
b1111 !"
b10000000000000000 +"
b0 v
b1111 w
b0 u
b0 D
b0 U
b1111 V
b1110 #
b1110 R
b1110 ]
b1110 q
b1 p
b10010 $
b10010 h
b10010 o
b10010 ."
b0 n
b1 b
b110000000001000000000000000000 1
b110000000001000000000000000000 -"
b101100 ,
b101100 a
b101100 k
b111100000000010000000000000000 *
b111100000000010000000000000000 X
b101100 &
b101100 O
b101100 _
b101100 -
b101100 L
b101100 N
b101100 ^
b101100 |
b101000 )
b101000 M
b101000 Y
b101000 j
1!
#750000
0!
#775000
b10110 <
b10110 ~
b10110 ("
b10110 8
b10110 J
b10110 Q
b10110 {
b10000 '
b10000 P
b10000 z
b100 6
b100 H
b100 [
b100 #"
b0 2
b0 r
b0 *"
b0 .
b0 S
b0 )"
b10 3
b10 s
b10 '"
b10000000000000010000 /
b10000000000000010000 ,"
b100 (
b100 \
b100 x
b100 y
1=
1?
b10 %
b10 d
b10 $"
b10000000000010000000000000010000 0
b10000000000010000000000000010000 m
b10000000000010000000000000010000 0"
b110000 +
b110000 i
b110000 l
b100011 !"
b100000000000000100 +"
b100 v
b100011 w
b100 u
b100 D
b100 U
b100011 V
b10 p
b10 b
b10000000000010000000000000010000 1
b10000000000010000000000000010000 -"
b110000 ,
b110000 a
b110000 k
b10001100000000100000000000000100 *
b10001100000000100000000000000100 X
b1000000 &
b1000000 O
b1000000 _
b110000 -
b110000 L
b110000 N
b110000 ^
b110000 |
b101100 )
b101100 M
b101100 Y
b101100 j
b0 #
b0 R
b0 ]
b0 q
1!
#800000
0!
#825000
b10010 <
b10010 ~
b10010 ("
b10000000000011000000000000000000 0
b10000000000011000000000000000000 m
b10000000000011000000000000000000 0"
b10010 8
b10010 J
b10010 Q
b10010 {
b10000000000011000000000000000000 1
b10000000000011000000000000000000 -"
b0 '
b0 P
b0 z
b0 6
b0 H
b0 [
b0 #"
b11 3
b11 s
b11 '"
b11000000000000000000 /
b11000000000000000000 ,"
b0 (
b0 \
b0 x
b0 y
b11 %
b11 d
b11 $"
b110100 +
b110100 i
b110100 l
b110000000000000000 +"
b0 v
b0 u
b0 D
b0 U
b1100100 #
b1100100 R
b1100100 ]
b1100100 q
b11 p
b11 b
b110100 ,
b110100 a
b110100 k
b10001100000000110000000000000000 *
b10001100000000110000000000000000 X
b110100 &
b110100 O
b110100 _
b110100 -
b110100 L
b110100 N
b110100 ^
b110100 |
b110000 )
b110000 M
b110000 Y
b110000 j
1!
#850000
0!
#875000
15
b0 <
b0 ~
b0 ("
b1100 '
b1100 P
b1100 z
b0 2
b0 r
b0 *"
1`
b0 8
b0 J
b0 Q
b0 {
14
b1000011000000000000001100 /
b1000011000000000000001100 ,"
b11 (
b11 \
b11 x
b11 y
0=
0?
1A
0:
0B
b0 7
b0 I
b0 g
b0 ""
b10001000011000000000000001100 0
b10001000011000000000000001100 m
b10001000011000000000000001100 0"
b1000100 +
b1000100 i
b1000100 l
b110 !"
b10000110000000000000011 +"
b11 v
b110 w
b11 u
b11 D
b11 U
b110 V
b0 $
b0 h
b0 o
b0 ."
b10 n
b10001000011000000000000001100 1
b10001000011000000000000001100 -"
b1000100 ,
b1000100 a
b1000100 k
b11000010000110000000000000011 *
b11000010000110000000000000011 X
b1000100 &
b1000100 O
b1000100 _
b111000 -
b111000 L
b111000 N
b111000 ^
b111000 |
b110100 )
b110100 M
b110100 Y
b110100 j
b0 #
b0 R
b0 ]
b0 q
1!
#900000
0!
#925000
b10110 2
b10110 r
b10110 *"
05
b10110 <
b10110 ~
b10110 ("
b10000 '
b10000 P
b10000 z
0`
b100 6
b100 H
b100 [
b100 #"
b10110 8
b10110 J
b10110 Q
b10110 {
b101 3
b101 s
b101 '"
b101000000000000010000 /
b101000000000000010000 ,"
b100 (
b100 \
b100 x
b100 y
0A
1:
1B
b10010 7
b10010 I
b10010 g
b10010 ""
b101 %
b101 d
b101 $"
b100000000101000000000000010000 0
b100000000101000000000000010000 m
b100000000101000000000000010000 0"
b1001000 +
b1001000 i
b1001000 l
b1000 !"
b1010000000000000100 +"
b100 v
b1000 w
b100 u
b100 D
b100 U
b1000 V
b101 p
b10010 $
b10010 h
b10010 o
b10010 ."
b0 n
b101 b
b100000000101000000000000010000 1
b100000000101000000000000010000 -"
b1001000 ,
b1001000 a
b1001000 k
b100000000001010000000000000100 *
b100000000001010000000000000100 X
b1011000 &
b1011000 O
b1011000 _
b1001000 -
b1001000 L
b1001000 N
b1001000 ^
b1001000 |
b1000100 )
b1000100 M
b1000100 Y
b1000100 j
1!
#950000
0!
#975000
b0 3
b0 s
b0 '"
b10001100 '
b10001100 P
b10001100 z
b10110 6
b10110 H
b10110 [
b10110 #"
b0 %
b0 d
b0 $"
b101000000000010001100 /
b101000000000010001100 ,"
b100011 (
b100011 \
b100011 x
b100011 y
b110 9
b110 F
b110 G
b10 C
b10 E
b10 W
b10 t
0B
1;
b101000000000010001100 0
b101000000000010001100 m
b101000000000010001100 0"
b1001100 +
b1001100 i
b1001100 l
b0 !"
b1010000000000100011 +"
b100011 v
b0 w
b100011 u
b100011 D
b100011 U
b0 V
b101000000000010001100 1
b101000000000010001100 -"
b1001100 ,
b1001100 a
b1001100 k
b1010000000000100011 *
b1010000000000100011 X
b11011000 &
b11011000 O
b11011000 _
b1001100 -
b1001100 L
b1001100 N
b1001100 ^
b1001100 |
b1001000 )
b1001000 M
b1001000 Y
b1001000 j
b10110 #
b10110 R
b10110 ]
b10110 q
1!
#1000000
0!
#1025000
b101100 2
b101100 r
b101100 *"
b100 0
b100 m
b100 0"
b101100 <
b101100 ~
b101100 ("
b100 1
b100 -"
b100 '
b100 P
b100 z
b101100 8
b101100 J
b101100 Q
b101100 {
b100 /
b100 ,"
b1 (
b1 \
b1 x
b1 y
b10 9
b10 F
b10 G
b0 C
b0 E
b0 W
b0 t
1A
0:
0;
b1010000 +
b1010000 i
b1010000 l
04
b1 !"
b1 +"
b1 v
b1 w
b1 u
b1 D
b1 U
b1 V
b0 p
b0 b
b1010000 ,
b1010000 a
b1010000 k
b10110 7
b10110 I
b10110 g
b10110 ""
b100000000000000000000000001 *
b100000000000000000000000001 X
b1010100 &
b1010100 O
b1010100 _
b1010000 -
b1010000 L
b1010000 N
b1010000 ^
b1010000 |
b1001100 )
b1001100 M
b1001100 Y
b1001100 j
b10110 $
b10110 h
b10110 o
b10110 ."
1!
#1050000
0!
