Lab3/code/tb_wave.vcd
$date
	Sat May 18 23:13:47 2019
$end
$version
	Icarus Verilog
$end
$timescale
	1ps
$end
$scope module TestBench $end
$scope module CPU $end
$var wire 1 ! clk_i $end
$var wire 1 " rst_i $end
$var wire 32 # reg_rt [31:0] $end
$var wire 32 $ reg_rs [31:0] $end
$var wire 5 % reg_dst [4:0] $end
$var wire 32 & pc_se_sl2_PLUS_pc_4 [31:0] $end
$var wire 32 ' pc_se_sl2 [31:0] $end
$var wire 32 ( pc_se [31:0] $end
$var wire 32 ) pc_output [31:0] $end
$var wire 32 * pc_instr [31:0] $end
$var wire 32 + pc_input [31:0] $end
$var wire 32 , pc_address_without_jump [31:0] $end
$var wire 32 - pc_4 [31:0] $end
$var wire 32 . mem_res_lw [31:0] $end
$var wire 32 / lower_jump [31:0] $end
$var wire 32 0 jump_whole [31:0] $end
$var wire 32 1 j_jal [31:0] $end
$var wire 32 2 final_RDdata [31:0] $end
$var wire 5 3 final_RDaddr [4:0] $end
$var wire 1 4 branch_res $end
$var wire 1 5 alu_zero $end
$var wire 32 6 alu_src2 [31:0] $end
$var wire 32 7 alu_src1 [31:0] $end
$var wire 32 8 alu_result [31:0] $end
$var wire 4 9 alu_ctrl [3:0] $end
$var wire 1 : RegWrite $end
$var wire 1 ; RegDst $end
$var wire 32 < RDdata_without_lw [31:0] $end
$var wire 1 = MemtoReg $end
$var wire 1 > MemWrite $end
$var wire 1 ? MemRead $end
$var wire 1 @ Jump $end
$var wire 1 A Branch $end
$var wire 1 B ALUSrc $end
$var wire 3 C ALUOp [2:0] $end
$scope module AC $end
$var wire 6 D funct_i [5:0] $end
$var wire 3 E ALUOp_i [2:0] $end
$var reg 4 F ALUCtrl_o [3:0] $end
$upscope $end
$scope module ALU $end
$var wire 4 G ctrl_i [3:0] $end
$var wire 1 5 zero_o $end
$var wire 32 H src2_i [31:0] $end
$var wire 32 I src1_i [31:0] $end
$var reg 32 J result_o [31:0] $end
$upscope $end
$scope module Adder1 $end
$var wire 32 K src2_i [31:0] $end
$var wire 32 L sum_o [31:0] $end
$var wire 32 M src1_i [31:0] $end
$upscope $end
$scope module Adder2 $end
$var wire 32 N src1_i [31:0] $end
$var wire 32 O sum_o [31:0] $end
$var wire 32 P src2_i [31:0] $end
$upscope $end
$scope module Data_Memory $end
$var wire 32 Q addr_i [31:0] $end
$var wire 1 ! clk_i $end
$var wire 32 R data_i [31:0] $end
$var wire 1 > MemWrite_i $end
$var wire 1 ? MemRead_i $end
$var reg 32 S data_o [31:0] $end
$var integer 32 T i [31:0] $end
$upscope $end
$scope module Decoder $end
$var wire 6 U func_code_i [5:0] $end
$var wire 6 V instr_op_i [5:0] $end
$var reg 1 B ALUSrc_o $end
$var reg 3 W ALU_op_o [2:0] $end
$var reg 1 A Branch_o $end
$var reg 1 @ Jump_o $end
$var reg 1 ? MemRead_o $end
$var reg 1 > MemWrite_o $end
$var reg 1 = MemtoReg_o $end
$var reg 1 ; RegDst_o $end
$var reg 1 : RegWrite_o $end
$upscope $end
$scope module IM $end
$var wire 32 X instr_o [31:0] $end
$var wire 32 Y addr_i [31:0] $end
$var integer 32 Z i [31:0] $end
$upscope $end
$scope module Mux_ALUSrc $end
$var wire 1 B select_i $end
$var wire 32 [ data_o [31:0] $end
$var wire 32 \ data1_i [31:0] $end
$var wire 32 ] data0_i [31:0] $end
$upscope $end
$scope module Mux_PC_Source $end
$var wire 32 ^ data0_i [31:0] $end
$var wire 32 _ data1_i [31:0] $end
$var wire 1 ` select_i $end
$var wire 32 a data_o [31:0] $end
$upscope $end
$scope module Mux_Write_Reg $end
$var wire 5 b data0_i [4:0] $end
$var wire 5 c data1_i [4:0] $end
$var wire 1 ; select_i $end
$var wire 5 d data_o [4:0] $end
$upscope $end
$scope module Mux_if_sra $end
$var wire 32 e data1_i [31:0] $end
$var wire 1 f select_i $end
$var wire 32 g data_o [31:0] $end
$var wire 32 h data0_i [31:0] $end
$upscope $end
$scope module PC $end
$var wire 1 ! clk_i $end
$var wire 1 " rst_i $end
$var wire 32 i pc_in_i [31:0] $end
$var reg 32 j pc_out_o [31:0] $end
$upscope $end
$scope module PC_Jump $end
$var wire 32 k data0_i [31:0] $end
$var wire 1 @ select_i $end
$var wire 32 l data_o [31:0] $end
$var wire 32 m data1_i [31:0] $end
$upscope $end
$scope module RF $end
$var wire 5 n RSaddr_i [4:0] $end
$var wire 32 o RSdata_o [31:0] $end
$var wire 5 p RTaddr_i [4:0] $end
$var wire 32 q RTdata_o [31:0] $end
$var wire 1 : RegWrite_i $end
$var wire 1 ! clk_i $end
$var wire 1 " rst_i $end
$var wire 32 r RDdata_i [31:0] $end
$var wire 5 s RDaddr_i [4:0] $end
$upscope $end
$scope module SE $end
$var wire 3 t ALUOp_i [2:0] $end
$var wire 16 u data_i [15:0] $end
$var wire 6 v funct_i [5:0] $end
$var wire 6 w op_i [5:0] $end
$var reg 32 x data_o [31:0] $end
$upscope $end
$scope module Shifter $end
$var wire 32 y data_i [31:0] $end
$var wire 32 z data_o [31:0] $end
$upscope $end
$scope module get_RDdata_without_lw $end
$var wire 32 { data0_i [31:0] $end
$var wire 32 | data1_i [31:0] $end
$var wire 1 } select_i $end
$var wire 32 ~ data_o [31:0] $end
$upscope $end
$scope module get_branch_res $end
$var wire 6 !" instr_op_i [5:0] $end
$var wire 32 "" src1_i [31:0] $end
$var wire 32 #" src2_i [31:0] $end
$var reg 1 4 branch_res_o $end
$upscope $end
$scope module get_final_RDaddr $end
$var wire 5 $" data0_i [4:0] $end
$var wire 5 %" data1_i [4:0] $end
$var wire 1 &" select_i $end
$var wire 5 '" data_o [4:0] $end
$upscope $end
$scope module get_final_RDdata $end
$var wire 32 (" data0_i [31:0] $end
$var wire 32 )" data1_i [31:0] $end
$var wire 1 = select_i $end
$var wire 32 *" data_o [31:0] $end
$upscope $end
$scope module get_jump_lower $end
$var wire 32 +" data_i [31:0] $end
$var wire 32 ," data_o [31:0] $end
$upscope $end
$scope module get_jump_whole $end
$var wire 32 -" data0_i [31:0] $end
$var wire 32 ." data1_i [31:0] $end
$var wire 1 /" select_i $end
$var wire 32 0" data_o [31:0] $end
$upscope $end
$upscope $end
$upscope $end
$enddefinitions $end
#0
$dumpvars
bx 0"
x/"
bx ."
bx00 -"
b0xxxxxxxxxxxxxxxxxxxxxxxxxx00 ,"
b0xxxxxxxxxxxxxxxxxxxxxxxxxx +"
bx *"
bx )"
bx ("
bx '"
x&"
b11111 %"
bx $"
bx #"
bx ""
bx !"
bx ~
x}
bx |
bx {
bx00 z
bx y
bx x
bx w
bx v
bx u
bx t
bx s
bx r
bx q
bx p
bx o
bx n
bx m
bx l
bx k
bx j
bx i
bx h
bx g
xf
b0xxxxx e
bx d
bx c
bx b
bx a
x`
bx _
bx ^
bx ]
bx \
bx [
b100000 Z
bx Y
bx X
bx W
bx V
bx U
b10000000 T
bx S
bx R
bx Q
bx00 P
bx O
bx N
bx M
bx L
b100 K
bx J
bx I
bx H
bx G
bx F
bx E
bx D
bx C
xB
xA
x@
x?
x>
x=
bx <
x;
x:
bx 9
bx 8
bx 7
bx 6
x5
x4
bx 3
bx 2
bx00 1
bx 0
b0xxxxxxxxxxxxxxxxxxxxxxxxxx00 /
bx .
bx -
bx ,
bx +
bx *
bx )
bx (
bx00 '
bx &
bx %
bx $
bx #
0"
0!
$end
#25000
b100 +
b100 i
b100 l
b1 2
b1 r
b1 *"
05
b100 ,
b100 a
b100 k
b1 <
b1 ~
b1 ("
b1 8
b1 J
b1 Q
b1 {
b1 3
b1 s
b1 '"
b1000 &
b1000 O
b1000 _
b100 '
b100 P
b100 z
0`
0}
0&"
b1 6
b1 H
b1 [
b1 #"
b1000000000000000100 /
b1000000000000000100 ,"
b1 (
b1 \
b1 x
b1 y
b10 9
b10 F
b10 G
b0 C
b0 E
b0 W
b0 t
0=
0>
0?
0@
0A
1:
1B
0;
b0 7
b0 I
b0 g
b0 ""
b1 %
b1 d
b1 $"
b100000000001000000000000000100 0
b100000000001000000000000000100 m
b100000000001000000000000000100 0"
b1000 !"
0/"
b10000000000000001 +"
0f
b0 e
b1 v
b1000 w
b1 u
b1 D
b1 U
b1000 V
b0 #
b0 R
b0 ]
b0 q
b1 p
b0 $
b0 h
b0 o
b0 ."
b0 n
b0 c
b1 b
b100000000001000000000000000100 1
b100000000001000000000000000100 -"
b100000000000010000000000000001 *
b100000000000010000000000000001 X
b100 -
b100 L
b100 N
b100 ^
b100 |
b0 )
b0 M
b0 Y
b0 j
1!
#50000
b1 #
b1 R
b1 ]
b1 q
0!
1"
#75000
b10 2
b10 r
b10 *"
b10 <
b10 ~
b10 ("
b100000000010000000000000001000 0
b100000000010000000000000001000 m
b100000000010000000000000001000 0"
b10 8
b10 J
b10 Q
b10 {
b100000000010000000000000001000 1
b100000000010000000000000001000 -"
b1000 '
b1000 P
b1000 z
b10 6
b10 H
b10 [
b10 #"
b10 3
b10 s
b10 '"
b10000000000000001000 /
b10000000000000001000 ,"
b10 (
b10 \
b10 x
b10 y
b10 %
b10 d
b10 $"
b1000 +
b1000 i
b1000 l
b100000000000000010 +"
b10 v
b10 u
b10 D
b10 U
b0 #
b0 R
b0 ]
b0 q
b10 p
b10 b
b1000 ,
b1000 a
b1000 k
b100000000000100000000000000010 *
b100000000000100000000000000010 X
b10000 &
b10000 O
b10000 _
b1000 -
b1000 L
b1000 N
b1000 ^
b1000 |
b100 )
b100 M
b100 Y
b100 j
1!
#100000
0!
#125000
b11 2
b11 r
b11 *"
b11 <
b11 ~
b11 ("
b100000000011000000000000001100 0
b100000000011000000000000001100 m
b100000000011000000000000001100 0"
b11 8
b11 J
b11 Q
b11 {
b100000000011000000000000001100 1
b100000000011000000000000001100 -"
b1100 '
b1100 P
b1100 z
b11 6
b11 H
b11 [
b11 #"
b11 3
b11 s
b11 '"
b11000000000000001100 /
b11000000000000001100 ,"
b11 (
b11 \
b11 x
b11 y
b11 %
b11 d
b11 $"
b1100 +
b1100 i
b1100 l
b110000000000000011 +"
b11 v
b11 u
b11 D
b11 U
b11 p
b11 b
b1100 ,
b1100 a
b1100 k
b100000000000110000000000000011 *
b100000000000110000000000000011 X
b11000 &
b11000 O
b11000 _
b1100 -
b1100 L
b1100 N
b1100 ^
b1100 |
b1000 )
b1000 M
b1000 Y
b1000 j
b0 #
b0 R
b0 ]
b0 q
1!
#150000
0!
#175000
b100 2
b100 r
b100 *"
b100 <
b100 ~
b100 ("
b100000000100000000000000010000 0
b100000000100000000000000010000 m
b100000000100000000000000010000 0"
b100 8
b100 J
b100 Q
b100 {
b100000000100000000000000010000 1
b100000000100000000000000010000 -"
b10000 '
b10000 P
b10000 z
b100 6
b100 H
b100 [
b100 #"
b100 3
b100 s
b100 '"
b100000000000000010000 /
b100000000000000010000 ,"
b100 (
b100 \
b100 x
b100 y
b100 %
b100 d
b100 $"
b10000 +
b10000 i
b10000 l
b1000000000000000100 +"
b100 v
b100 u
b100 D
b100 U
b100 p
b100 b
b10000 ,
b10000 a
b10000 k
b100000000001000000000000000100 *
b100000000001000000000000000100 X
b100000 &
b100000 O
b100000 _
b10000 -
b10000 L
b10000 N
b10000 ^
b10000 |
b1100 )
b1100 M
b1100 Y
b1100 j
b0 #
b0 R
b0 ]
b0 q
1!
#200000
0!
#225000
b101 2
b101 r
b101 *"
b101 <
b101 ~
b101 ("
b100000000101000000000000010100 0
b100000000101000000000000010100 m
b100000000101000000000000010100 0"
b101 8
b101 J
b101 Q
b101 {
b100000000101000000000000010100 1
b100000000101000000000000010100 -"
b10100 '
b10100 P
b10100 z
b101 6
b101 H
b101 [
b101 #"
b101 3
b101 s
b101 '"
b101000000000000010100 /
b101000000000000010100 ,"
b101 (
b101 \
b101 x
b101 y
b101 %
b101 d
b101 $"
b10100 +
b10100 i
b10100 l
b1010000000000000101 +"
b101 v
b101 u
b101 D
b101 U
b101 p
b101 b
b10100 ,
b10100 a
b10100 k
b100000000001010000000000000101 *
b100000000001010000000000000101 X
b101000 &
b101000 O
b101000 _
b10100 -
b10100 L
b10100 N
b10100 ^
b10100 |
b10000 )
b10000 M
b10000 Y
b10000 j
b0 #
b0 R
b0 ]
b0 q
1!
#250000
0!
#275000
b0 2
b0 r
b0 *"
15
b0 <
b0 ~
b0 ("
b0 8
b0 J
b0 Q
b0 {
b100000 '
b100000 P
b100000 z
b0 6
b0 H
b0 [
b0 #"
b0 3
b0 s
b0 '"
b100000 /
b100000 ,"
b1000 (
b1000 \
b1000 x
b1000 y
0:
1@
0B
b0 %
b0 d
b0 $"
b100000 0
b100000 m
b100000 0"
b100000 +
b100000 i
b100000 l
b10 !"
b1000 +"
b1000 v
b10 w
b1000 u
b1000 D
b1000 U
b10 V
b0 p
b0 b
b100000 1
b100000 -"
b11000 ,
b11000 a
b11000 k
b1000000000000000000000001000 *
b1000000000000000000000001000 X
b111000 &
b111000 O
b111000 _
b11000 -
b11000 L
b11000 N
b11000 ^
b11000 |
b10100 )
b10100 M
b10100 Y
b10100 j
b0 #
b0 R
b0 ]
b0 q
1!
#300000
0!
#325000
b0 2
b0 r
b0 *"
15
b0 <
b0 ~
b0 ("
b0 '
b0 P
b0 z
b0 8
b0 J
b0 Q
b0 {
b1 3
b1 s
b1 '"
b100100 +
b100100 i
b100100 l
b1000000000000000000 /
b1000000000000000000 ,"
b0 (
b0 \
b0 x
b0 y
1>
0@
1B
b0 6
b0 H
b0 [
b0 #"
b1 %
b1 d
b1 $"
b10100000000001000000000000000000 0
b10100000000001000000000000000000 m
b10100000000001000000000000000000 0"
b101011 !"
b10000000000000000 +"
b0 v
b101011 w
b0 u
b0 D
b0 U
b101011 V
b1 #
b1 R
b1 ]
b1 q
b1 p
b1 b
b10100000000001000000000000000000 1
b10100000000001000000000000000000 -"
b100100 ,
b100100 a
b100100 k
b10101100000000010000000000000000 *
b10101100000000010000000000000000 X
b100100 &
b100100 O
b100100 _
b100100 -
b100100 L
b100100 N
b100100 ^
b100100 |
b100000 )
b100000 M
b100000 Y
b100000 j
1!
#350000
0!
#375000
b100 2
b100 r
b100 *"
05
b100 <
b100 ~
b100 ("
b10100000000010000000000000010000 0
b10100000000010000000000000010000 m
b10100000000010000000000000010000 0"
b100 8
b100 J
b100 Q
b100 {
b10100000000010000000000000010000 1
b10100000000010000000000000010000 -"
b10000 '
b10000 P
b10000 z
b100 6
b100 H
b100 [
b100 #"
b10 3
b10 s
b10 '"
b10000000000000010000 /
b10000000000000010000 ,"
b100 (
b100 \
b100 x
b100 y
b10 %
b10 d
b10 $"
b101000 +
b101000 i
b101000 l
b100000000000000100 +"
b100 v
b100 u
b100 D
b100 U
b10 #
b10 R
b10 ]
b10 q
b10 p
b10 b
b101000 ,
b101000 a
b101000 k
b10101100000000100000000000000100 *
b10101100000000100000000000000100 X
b111000 &
b111000 O
b111000 _
b101000 -
b101000 L
b101000 N
b101000 ^
b101000 |
b100100 )
b100100 M
b100100 Y
b100100 j
1!
#400000
0!
#425000
15
b0 <
b0 ~
b0 ("
b0 8
b0 J
b0 Q
b0 {
b0 '
b0 P
b0 z
b0 6
b0 H
b0 [
b0 #"
b1 2
b1 r
b1 *"
b1 .
b1 S
b1 )"
b110 3
b110 s
b110 '"
b110000000000000000000 /
b110000000000000000000 ,"
b0 (
b0 \
b0 x
b0 y
1=
0>
1?
1:
b110 %
b110 d
b110 $"
b10000000000110000000000000000000 0
b10000000000110000000000000000000 m
b10000000000110000000000000000000 0"
b101100 +
b101100 i
b101100 l
b100011 !"
b1100000000000000000 +"
b0 v
b100011 w
b0 u
b0 D
b0 U
b100011 V
b0 #
b0 R
b0 ]
b0 q
b110 p
b110 b
b10000000000110000000000000000000 1
b10000000000110000000000000000000 -"
b101100 ,
b101100 a
b101100 k
b10001100000001100000000000000000 *
b10001100000001100000000000000000 X
b101100 &
b101100 O
b101100 _
b101100 -
b101100 L
b101100 N
b101100 ^
b101100 |
b101000 )
b101000 M
b101000 Y
b101000 j
1!
#450000
0!
#475000
b10 2
b10 r
b10 *"
b10000010000111000000000000000000 0
b10000010000111000000000000000000 m
b10000010000111000000000000000000 0"
05
b10 .
b10 S
b10 )"
b100 <
b100 ~
b100 ("
b10000010000111000000000000000000 1
b10000010000111000000000000000000 -"
b100 8
b100 J
b100 Q
b100 {
b111 3
b111 s
b111 '"
b10000111000000000000000000 /
b10000111000000000000000000 ,"
b100 7
b100 I
b100 g
b100 ""
b111 %
b111 d
b111 $"
b110000 +
b110000 i
b110000 l
b100001110000000000000000 +"
b111 p
b100 $
b100 h
b100 o
b100 ."
b100 n
b111 b
b110000 ,
b110000 a
b110000 k
b10001100100001110000000000000000 *
b10001100100001110000000000000000 X
b110000 &
b110000 O
b110000 _
b110000 -
b110000 L
b110000 N
b110000 ^
b110000 |
b101100 )
b101100 M
b101100 Y
b101100 j
b0 #
b0 R
b0 ]
b0 q
1!
#500000
0!
#525000
b100 <
b100 ~
b100 ("
b10000000010000100 '
b10000000010000100 P
b10000000010000100 z
b100 2
b100 r
b100 *"
b11 6
b11 H
b11 [
b11 #"
b100 8
b100 J
b100 Q
b100 {
b1000 3
b1000 s
b1000 '"
b100011010000000010000100 /
b100011010000000010000100 ,"
b100000000100001 (
b100000000100001 \
b100000000100001 x
b100000000100001 y
0=
0?
b10 C
b10 E
b10 W
b10 t
0B
1;
b1 7
b1 I
b1 g
b1 ""
b1000 %
b1000 d
b1000 $"
b100011010000000010000100 0
b100011010000000010000100 m
b100011010000000010000100 0"
b110100 +
b110100 i
b110100 l
b0 !"
b1000110100000000100001 +"
b100001 v
b0 w
b100000000100001 u
b100001 D
b100001 U
b0 V
b11 p
b1 $
b1 h
b1 o
b1 ."
b1 n
b1000 c
b11 b
b100011010000000010000100 1
b100011010000000010000100 -"
b110100 ,
b110100 a
b110100 k
b1000110100000000100001 *
b1000110100000000100001 X
b10000000010111000 &
b10000000010111000 O
b10000000010111000 _
b110100 -
b110100 L
b110100 N
b110100 ^
b110100 |
b110000 )
b110000 M
b110000 Y
b110000 j
b11 #
b11 R
b11 ]
b11 q
1!
#550000
0!
#575000
05
b100 <
b100 ~
b100 ("
b10000 '
b10000 P
b10000 z
b10 2
b10 r
b10 *"
b10 .
b10 S
b10 )"
b100 8
b100 J
b100 Q
b100 {
b1001 3
b1001 s
b1001 '"
b1001000000000000010000 /
b1001000000000000010000 ,"
b100 (
b100 \
b100 x
b100 y
b0 C
b0 E
b0 W
b0 t
1=
1?
1B
0;
b100 6
b100 H
b100 [
b100 #"
b0 7
b0 I
b0 g
b0 ""
b1001 %
b1001 d
b1001 $"
b10000000001001000000000000010000 0
b10000000001001000000000000010000 m
b10000000001001000000000000010000 0"
b111000 +
b111000 i
b111000 l
b100011 !"
b10010000000000000100 +"
b100 v
b100011 w
b100 u
b100 D
b100 U
b100011 V
b0 #
b0 R
b0 ]
b0 q
b1001 p
b0 $
b0 h
b0 o
b0 ."
b0 n
b0 c
b1001 b
b10000000001001000000000000010000 1
b10000000001001000000000000010000 -"
b111000 ,
b111000 a
b111000 k
b10001100000010010000000000000100 *
b10001100000010010000000000000100 X
b1001000 &
b1001000 O
b1001000 _
b111000 -
b111000 L
b111000 N
b111000 ^
b111000 |
b110100 )
b110100 M
b110100 Y
b110100 j
1!
#600000
0!
#625000
15
b0 <
b0 ~
b0 ("
b0 8
b0 J
b0 Q
b0 {
b0 '
b0 P
b0 z
b0 2
b0 r
b0 *"
b0 6
b0 H
b0 [
b0 #"
b0 3
b0 s
b0 '"
b0 /
b0 ,"
b0 (
b0 \
b0 x
b0 y
0=
0?
0:
0B
b0 %
b0 d
b0 $"
b0 0
b0 m
b0 0"
b111100 +
b111100 i
b111100 l
b0 !"
b0 +"
b0 v
b0 w
b0 u
b0 D
b0 U
b0 V
b0 p
b0 b
b0 1
b0 -"
b111100 ,
b111100 a
b111100 k
b0 *
b0 X
b111100 &
b111100 O
b111100 _
b111100 -
b111100 L
b111100 N
b111100 ^
b111100 |
b111000 )
b111000 M
b111000 Y
b111000 j
b0 #
b0 R
b0 ]
b0 q
1!
#650000
0!
#675000
b1000000 +
b1000000 i
b1000000 l
b1000000 ,
b1000000 a
b1000000 k
b1000000 &
b1000000 O
b1000000 _
b1000000 -
b1000000 L
b1000000 N
b1000000 ^
b1000000 |
b111100 )
b111100 M
b111100 Y
b111100 j
1!
#700000
0!
#725000
b1000100 +
b1000100 i
b1000100 l
b1000100 ,
b1000100 a
b1000100 k
b1000100 &
b1000100 O
b1000100 _
b1000100 -
b1000100 L
b1000100 N
b1000100 ^
b1000100 |
b1000000 )
b1000000 M
b1000000 Y
b1000000 j
1!
#750000
0!
#775000
b1001000 +
b1001000 i
b1001000 l
b1001000 ,
b1001000 a
b1001000 k
b1001000 &
b1001000 O
b1001000 _
b1001000 -
b1001000 L
b1001000 N
b1001000 ^
b1001000 |
b1000100 )
b1000100 M
b1000100 Y
b1000100 j
1!
#800000
0!
#825000
b1001100 +
b1001100 i
b1001100 l
b1001100 ,
b1001100 a
b1001100 k
b1001100 &
b1001100 O
b1001100 _
b1001100 -
b1001100 L
b1001100 N
b1001100 ^
b1001100 |
b1001000 )
b1001000 M
b1001000 Y
b1001000 j
1!
#850000
0!
#875000
b1010000 +
b1010000 i
b1010000 l
b1010000 ,
b1010000 a
b1010000 k
b1010000 &
b1010000 O
b1010000 _
b1010000 -
b1010000 L
b1010000 N
b1010000 ^
b1010000 |
b1001100 )
b1001100 M
b1001100 Y
b1001100 j
1!
#900000
0!
#925000
b1010100 +
b1010100 i
b1010100 l
b1010100 ,
b1010100 a
b1010100 k
b1010100 &
b1010100 O
b1010100 _
b1010100 -
b1010100 L
b1010100 N
b1010100 ^
b1010100 |
b1010000 )
b1010000 M
b1010000 Y
b1010000 j
1!
#950000
0!
#975000
b1011000 +
b1011000 i
b1011000 l
b1011000 ,
b1011000 a
b1011000 k
b1011000 &
b1011000 O
b1011000 _
b1011000 -
b1011000 L
b1011000 N
b1011000 ^
b1011000 |
b1010100 )
b1010100 M
b1010100 Y
b1010100 j
1!
#1000000
0!
#1025000
b1011100 +
b1011100 i
b1011100 l
b1011100 ,
b1011100 a
b1011100 k
b1011100 &
b1011100 O
b1011100 _
b1011100 -
b1011100 L
b1011100 N
b1011100 ^
b1011100 |
b1011000 )
b1011000 M
b1011000 Y
b1011000 j
1!
#1050000
0!
#1075000
b1100000 +
b1100000 i
b1100000 l
b1100000 ,
b1100000 a
b1100000 k
b1100000 &
b1100000 O
b1100000 _
b1100000 -
b1100000 L
b1100000 N
b1100000 ^
b1100000 |
b1011100 )
b1011100 M
b1011100 Y
b1011100 j
1!
#1100000
0!
#1125000
b1100100 +
b1100100 i
b1100100 l
b1100100 ,
b1100100 a
b1100100 k
b1100100 &
b1100100 O
b1100100 _
b1100100 -
b1100100 L
b1100100 N
b1100100 ^
b1100100 |
b1100000 )
b1100000 M
b1100000 Y
b1100000 j
1!
#1150000
0!
#1175000
b1101000 +
b1101000 i
b1101000 l
b1101000 ,
b1101000 a
b1101000 k
b1101000 &
b1101000 O
b1101000 _
b1101000 -
b1101000 L
b1101000 N
b1101000 ^
b1101000 |
b1100100 )
b1100100 M
b1100100 Y
b1100100 j
1!
#1200000
0!
#1225000
b1101100 +
b1101100 i
b1101100 l
b1101100 ,
b1101100 a
b1101100 k
b1101100 &
b1101100 O
b1101100 _
b1101100 -
b1101100 L
b1101100 N
b1101100 ^
b1101100 |
b1101000 )
b1101000 M
b1101000 Y
b1101000 j
1!
#1250000
0!
#1275000
b1110000 +
b1110000 i
b1110000 l
b1110000 ,
b1110000 a
b1110000 k
b1110000 &
b1110000 O
b1110000 _
b1110000 -
b1110000 L
b1110000 N
b1110000 ^
b1110000 |
b1101100 )
b1101100 M
b1101100 Y
b1101100 j
1!
#1300000
0!
#1325000
b1110100 +
b1110100 i
b1110100 l
b1110100 ,
b1110100 a
b1110100 k
b1110100 &
b1110100 O
b1110100 _
b1110100 -
b1110100 L
b1110100 N
b1110100 ^
b1110100 |
b1110000 )
b1110000 M
b1110000 Y
b1110000 j
1!
#1350000
0!
#1375000
b1111000 +
b1111000 i
b1111000 l
b1111000 ,
b1111000 a
b1111000 k
b1111000 &
b1111000 O
b1111000 _
b1111000 -
b1111000 L
b1111000 N
b1111000 ^
b1111000 |
b1110100 )
b1110100 M
b1110100 Y
b1110100 j
1!
#1400000
0!
#1425000
b1111100 +
b1111100 i
b1111100 l
b1111100 ,
b1111100 a
b1111100 k
b1111100 &
b1111100 O
b1111100 _
b1111100 -
b1111100 L
b1111100 N
b1111100 ^
b1111100 |
b1111000 )
b1111000 M
b1111000 Y
b1111000 j
1!
#1450000
0!
#1475000
b10000000 +
b10000000 i
b10000000 l
b10000000 ,
b10000000 a
b10000000 k
b10000000 &
b10000000 O
b10000000 _
b10000000 -
b10000000 L
b10000000 N
b10000000 ^
b10000000 |
b1111100 )
b1111100 M
b1111100 Y
b1111100 j
1!
#1500000
0!
#1525000
bx 2
bx r
bx *"
x5
bx <
bx ~
bx ("
bx00 '
bx00 P
bx00 z
bx 8
bx J
bx Q
bx {
bx 3
bx s
bx '"
b0xxxxxxxxxxxxxxxxxxxxxxxxxx00 /
b0xxxxxxxxxxxxxxxxxxxxxxxxxx00 ,"
bx (
bx \
bx x
bx y
bx 6
bx H
bx [
bx #"
bx 7
bx I
bx g
bx ""
bx %
bx d
bx $"
bx 0
bx m
bx 0"
b10000100 +
b10000100 i
b10000100 l
bx !"
x/"
b0xxxxxxxxxxxxxxxxxxxxxxxxxx +"
xf
b0xxxxx e
bx v
bx w
bx u
bx D
bx U
bx V
bx #
bx R
bx ]
bx q
bx p
bx $
bx h
bx o
bx ."
bx n
bx c
bx b
bx00 1
bx00 -"
b10000100 ,
b10000100 a
b10000100 k
bx *
bx X
bx &
bx O
bx _
b10000100 -
b10000100 L
b10000100 N
b10000100 ^
b10000100 |
b10000000 )
b10000000 M
b10000000 Y
b10000000 j
1!
#1550000
0!
#1575000
b10001000 +
b10001000 i
b10001000 l
b10001000 ,
b10001000 a
b10001000 k
b10001000 -
b10001000 L
b10001000 N
b10001000 ^
b10001000 |
b10000100 )
b10000100 M
b10000100 Y
b10000100 j
1!
#1600000
0!
#1625000
b10001100 +
b10001100 i
b10001100 l
b10001100 ,
b10001100 a
b10001100 k
b10001100 -
b10001100 L
b10001100 N
b10001100 ^
b10001100 |
b10001000 )
b10001000 M
b10001000 Y
b10001000 j
1!
#1650000
0!
#1675000
b10010000 +
b10010000 i
b10010000 l
b10010000 ,
b10010000 a
b10010000 k
b10010000 -
b10010000 L
b10010000 N
b10010000 ^
b10010000 |
b10001100 )
b10001100 M
b10001100 Y
b10001100 j
1!
#1700000
0!
#1725000
b10010100 +
b10010100 i
b10010100 l
b10010100 ,
b10010100 a
b10010100 k
b10010100 -
b10010100 L
b10010100 N
b10010100 ^
b10010100 |
b10010000 )
b10010000 M
b10010000 Y
b10010000 j
1!
#1750000
0!
#1775000
b10011000 +
b10011000 i
b10011000 l
b10011000 ,
b10011000 a
b10011000 k
b10011000 -
b10011000 L
b10011000 N
b10011000 ^
b10011000 |
b10010100 )
b10010100 M
b10010100 Y
b10010100 j
1!
#1800000
0!
#1825000
b10011100 +
b10011100 i
b10011100 l
b10011100 ,
b10011100 a
b10011100 k
b10011100 -
b10011100 L
b10011100 N
b10011100 ^
b10011100 |
b10011000 )
b10011000 M
b10011000 Y
b10011000 j
1!
#1850000
0!
#1875000
b10100000 +
b10100000 i
b10100000 l
b10100000 ,
b10100000 a
b10100000 k
b10100000 -
b10100000 L
b10100000 N
b10100000 ^
b10100000 |
b10011100 )
b10011100 M
b10011100 Y
b10011100 j
1!
#1900000
0!
#1925000
b10100100 +
b10100100 i
b10100100 l
b10100100 ,
b10100100 a
b10100100 k
b10100100 -
b10100100 L
b10100100 N
b10100100 ^
b10100100 |
b10100000 )
b10100000 M
b10100000 Y
b10100000 j
1!
#1950000
0!
#1975000
b10101000 +
b10101000 i
b10101000 l
b10101000 ,
b10101000 a
b10101000 k
b10101000 -
b10101000 L
b10101000 N
b10101000 ^
b10101000 |
b10100100 )
b10100100 M
b10100100 Y
b10100100 j
1!
#2000000
0!
#2025000
b10101100 +
b10101100 i
b10101100 l
b10101100 ,
b10101100 a
b10101100 k
b10101100 -
b10101100 L
b10101100 N
b10101100 ^
b10101100 |
b10101000 )
b10101000 M
b10101000 Y
b10101000 j
1!
#2050000
0!
#2075000
b10110000 +
b10110000 i
b10110000 l
b10110000 ,
b10110000 a
b10110000 k
b10110000 -
b10110000 L
b10110000 N
b10110000 ^
b10110000 |
b10101100 )
b10101100 M
b10101100 Y
b10101100 j
1!
#2100000
0!
#2125000
b10110100 +
b10110100 i
b10110100 l
b10110100 ,
b10110100 a
b10110100 k
b10110100 -
b10110100 L
b10110100 N
b10110100 ^
b10110100 |
b10110000 )
b10110000 M
b10110000 Y
b10110000 j
1!
#2150000
0!
#2175000
b10111000 +
b10111000 i
b10111000 l
b10111000 ,
b10111000 a
b10111000 k
b10111000 -
b10111000 L
b10111000 N
b10111000 ^
b10111000 |
b10110100 )
b10110100 M
b10110100 Y
b10110100 j
1!
#2200000
0!
#2225000
b10111100 +
b10111100 i
b10111100 l
b10111100 ,
b10111100 a
b10111100 k
b10111100 -
b10111100 L
b10111100 N
b10111100 ^
b10111100 |
b10111000 )
b10111000 M
b10111000 Y
b10111000 j
1!
#2250000
0!
#2275000
b11000000 +
b11000000 i
b11000000 l
b11000000 ,
b11000000 a
b11000000 k
b11000000 -
b11000000 L
b11000000 N
b11000000 ^
b11000000 |
b10111100 )
b10111100 M
b10111100 Y
b10111100 j
1!
#2300000
0!
